(footprint "Battery_mount" (version 20210606) (generator bitmap2component) (layer "F.Cu")
  (at 0 0)
(attr board_only exclude_from_pos_files exclude_from_bom)
 (fp_text reference "G*" (at 0 0) (layer F.SilkS)
  (effects (font (thickness 0.3)))
  )
  (fp_text value "LOGO" (at 0.75 0) (layer F.SilkS) hide
  (effects (font (thickness 0.3)))
  )
  (fp_poly (pts (xy -13.607143 10.591180) (xy -12.908381 10.660555) (xy -12.430561 10.726525) (xy -12.135834 10.799935) (xy -11.986351 10.891631) (xy -11.944261 11.012458) (xy -11.948299 11.066510) (xy -12.027662 11.251516)
     (xy -12.243550 11.341135) (xy -12.505613 11.367436) (xy -12.980353 11.344173) (xy -13.441576 11.249755) (xy -13.477551 11.237844) (xy -13.786896 11.067568) (xy -13.941278 10.863003) (xy -13.928677 10.684141)
     (xy -13.737070 10.590972) )(layer F.SilkS) (width  0.000000)
  )
  (fp_poly (pts (xy -8.027698 10.759870) (xy -7.720137 10.780864) (xy -7.570985 10.833731) (xy -7.529860 10.933097) (xy -7.539712 11.047704) (xy -7.584220 11.201609) (xy -7.702303 11.293604) (xy -7.952423 11.343856)
     (xy -8.393041 11.372527) (xy -8.493927 11.376822) (xy -8.958875 11.383305) (xy -9.317396 11.364832) (xy -9.495324 11.325390) (xy -9.498264 11.322825) (xy -9.577009 11.127237) (xy -9.589796 10.993708)
     (xy -9.562389 10.875189) (xy -9.446103 10.803913) (xy -9.189844 10.768274) (xy -8.742516 10.756661) (xy -8.544048 10.756123) )(layer F.SilkS) (width  0.000000)
  )
  (fp_poly (pts (xy -3.621576 10.759870) (xy -3.314015 10.780864) (xy -3.164863 10.833731) (xy -3.123738 10.933097) (xy -3.133589 11.047704) (xy -3.178098 11.201609) (xy -3.296181 11.293604) (xy -3.546301 11.343856)
     (xy -3.986919 11.372527) (xy -4.087805 11.376822) (xy -4.552752 11.383305) (xy -4.911273 11.364832) (xy -5.089201 11.325390) (xy -5.092142 11.322825) (xy -5.170887 11.127237) (xy -5.183674 10.993708)
     (xy -5.156266 10.875189) (xy -5.039981 10.803913) (xy -4.783721 10.768274) (xy -4.336394 10.756661) (xy -4.137926 10.756123) )(layer F.SilkS) (width  0.000000)
  )
  (fp_poly (pts (xy 0.784547 10.759870) (xy 1.092108 10.780864) (xy 1.241260 10.833731) (xy 1.282385 10.933097) (xy 1.272533 11.047704) (xy 1.228025 11.201609) (xy 1.109941 11.293604) (xy 0.859822 11.343856)
     (xy 0.419204 11.372527) (xy 0.318318 11.376822) (xy -0.146630 11.383305) (xy -0.505151 11.364832) (xy -0.683079 11.325390) (xy -0.686019 11.322825) (xy -0.764765 11.127237) (xy -0.777551 10.993708)
     (xy -0.750144 10.875189) (xy -0.633858 10.803913) (xy -0.377599 10.768274) (xy 0.069728 10.756661) (xy 0.268196 10.756123) )(layer F.SilkS) (width  0.000000)
  )
  (fp_poly (pts (xy 5.130084 10.767697) (xy 5.449171 10.809234) (xy 5.613847 10.890955) (xy 5.660195 10.963589) (xy 5.639656 11.198536) (xy 5.558934 11.285585) (xy 5.341112 11.345916) (xy 4.969411 11.384694)
     (xy 4.532007 11.400383) (xy 4.117076 11.391450) (xy 3.812792 11.356358) (xy 3.714966 11.317687) (xy 3.640747 11.127120) (xy 3.628571 10.993708) (xy 3.657531 10.871818) (xy 3.779519 10.800157)
     (xy 4.047192 10.765905) (xy 4.513211 10.756243) (xy 4.604577 10.756123) )(layer F.SilkS) (width  0.000000)
  )
  (fp_poly (pts (xy 9.536207 10.767697) (xy 9.855293 10.809234) (xy 10.019970 10.890955) (xy 10.066318 10.963589) (xy 10.045778 11.198536) (xy 9.965057 11.285585) (xy 9.747234 11.345916) (xy 9.375533 11.384694)
     (xy 8.938129 11.400383) (xy 8.523198 11.391450) (xy 8.218914 11.356358) (xy 8.121088 11.317687) (xy 8.046870 11.127120) (xy 8.034693 10.993708) (xy 8.063654 10.871818) (xy 8.185641 10.800157)
     (xy 8.453315 10.765905) (xy 8.919334 10.756243) (xy 9.010699 10.756123) )(layer F.SilkS) (width  0.000000)
  )
  (fp_poly (pts (xy 14.307945 10.348429) (xy 14.374029 10.557685) (xy 14.343772 10.675840) (xy 14.163472 10.880365) (xy 13.826544 11.081936) (xy 13.412824 11.251824) (xy 13.002149 11.361297) (xy 12.674355 11.381626)
     (xy 12.535943 11.326419) (xy 12.419009 11.082223) (xy 12.533346 10.862176) (xy 12.851800 10.710228) (xy 12.926785 10.693859) (xy 13.359815 10.573069) (xy 13.748777 10.404069) (xy 13.767861 10.393063)
     (xy 14.086456 10.284014) )(layer F.SilkS) (width  0.000000)
  )
  (fp_poly (pts (xy -14.592161 6.521437) (xy -14.481400 6.618389) (xy -14.416960 6.838523) (xy -14.388622 7.233848) (xy -14.384694 7.577055) (xy -14.391744 8.077780) (xy -14.421439 8.372168) (xy -14.486597 8.512876)
     (xy -14.600039 8.552566) (xy -14.622279 8.553061) (xy -14.868688 8.510753) (xy -14.946259 8.466667) (xy -14.999637 8.285089) (xy -15.025833 7.934098) (xy -15.026383 7.501870) (xy -15.002821 7.076581)
     (xy -14.956684 6.746406) (xy -14.914156 6.622698) (xy -14.713436 6.506229) )(layer F.SilkS) (width  0.000000)
  )
  (fp_poly (pts (xy 14.906678 6.201233) (xy 15.007373 6.614046) (xy 15.032653 7.062755) (xy 14.993379 7.644065) (xy 14.873065 7.985749) (xy 14.667970 8.095569) (xy 14.546683 8.071290) (xy 14.465574 7.921680)
     (xy 14.411256 7.593173) (xy 14.384759 7.164774) (xy 14.387115 6.715487) (xy 14.419353 6.324315) (xy 14.482504 6.070263) (xy 14.519962 6.022512) (xy 14.740253 5.996031) )(layer F.SilkS) (width  0.000000)
  )
  (fp_poly (pts (xy -14.592161 2.115314) (xy -14.481400 2.212267) (xy -14.416960 2.432400) (xy -14.388622 2.827725) (xy -14.384694 3.170933) (xy -14.391744 3.671658) (xy -14.421439 3.966045) (xy -14.486597 4.106754)
     (xy -14.600039 4.146443) (xy -14.622279 4.146939) (xy -14.868688 4.104630) (xy -14.946259 4.060544) (xy -14.999637 3.878966) (xy -15.025833 3.527976) (xy -15.026383 3.095748) (xy -15.002821 2.670459)
     (xy -14.956684 2.340284) (xy -14.914156 2.216576) (xy -14.713436 2.100106) )(layer F.SilkS) (width  0.000000)
  )
  (fp_poly (pts (xy 14.809767 1.598111) (xy 14.945359 1.810807) (xy 15.004074 2.249155) (xy 15.001276 2.721429) (xy 14.974578 3.179030) (xy 14.925331 3.438386) (xy 14.831123 3.560439) (xy 14.676275 3.605187)
     (xy 14.528740 3.611789) (xy 14.441806 3.545085) (xy 14.399490 3.353352) (xy 14.385807 2.984865) (xy 14.384693 2.661579) (xy 14.396064 2.133591) (xy 14.436911 1.812202) (xy 14.517343 1.645552)
     (xy 14.592160 1.596947) )(layer F.SilkS) (width  0.000000)
  )
  (fp_poly (pts (xy -14.592161 -2.290808) (xy -14.481400 -2.193856) (xy -14.416960 -1.973722) (xy -14.388622 -1.578397) (xy -14.384694 -1.235190) (xy -14.391744 -0.734464) (xy -14.421439 -0.440077) (xy -14.486597 -0.299369)
     (xy -14.600039 -0.259679) (xy -14.622279 -0.259184) (xy -14.868688 -0.301492) (xy -14.946259 -0.345578) (xy -14.999637 -0.527156) (xy -15.025833 -0.878147) (xy -15.026383 -1.310374) (xy -15.002821 -1.735664)
     (xy -14.956684 -2.065839) (xy -14.914156 -2.189547) (xy -14.713436 -2.306016) )(layer F.SilkS) (width  0.000000)
  )
  (fp_poly (pts (xy 14.809767 -2.808012) (xy 14.945359 -2.595316) (xy 15.004074 -2.156967) (xy 15.001276 -1.684694) (xy 14.974578 -1.227093) (xy 14.925331 -0.967736) (xy 14.831123 -0.845684) (xy 14.676275 -0.800936)
     (xy 14.528740 -0.794334) (xy 14.441806 -0.861038) (xy 14.399490 -1.052771) (xy 14.385807 -1.421258) (xy 14.384693 -1.744544) (xy 14.396064 -2.272531) (xy 14.436911 -2.593920) (xy 14.517343 -2.760571)
     (xy 14.592160 -2.809175) )(layer F.SilkS) (width  0.000000)
  )
  (fp_poly (pts (xy -14.592161 -6.696930) (xy -14.481400 -6.599978) (xy -14.416960 -6.379845) (xy -14.388622 -5.984519) (xy -14.384694 -5.641312) (xy -14.391744 -5.140587) (xy -14.421439 -4.846200) (xy -14.486597 -4.705491)
     (xy -14.600039 -4.665802) (xy -14.622279 -4.665306) (xy -14.868688 -4.707615) (xy -14.946259 -4.751701) (xy -14.999637 -4.933279) (xy -15.025833 -5.284269) (xy -15.026383 -5.716497) (xy -15.002821 -6.141786)
     (xy -14.956684 -6.471961) (xy -14.914156 -6.595669) (xy -14.713436 -6.712139) )(layer F.SilkS) (width  0.000000)
  )
  (fp_poly (pts (xy 14.809767 -7.214134) (xy 14.945359 -7.001438) (xy 15.004074 -6.563090) (xy 15.001276 -6.090816) (xy 14.974578 -5.633215) (xy 14.925331 -5.373858) (xy 14.831123 -5.251806) (xy 14.676275 -5.207058)
     (xy 14.528740 -5.200456) (xy 14.441806 -5.267160) (xy 14.399490 -5.458893) (xy 14.385807 -5.827380) (xy 14.384693 -6.150666) (xy 14.396064 -6.678654) (xy 14.436911 -7.000043) (xy 14.517343 -7.166693)
     (xy 14.592160 -7.215298) )(layer F.SilkS) (width  0.000000)
  )
  (fp_poly (pts (xy -13.666010 -10.746529) (xy -13.685089 -10.565551) (xy -13.849858 -10.320184) (xy -13.858141 -10.311264) (xy -14.085185 -9.977862) (xy -14.258799 -9.570380) (xy -14.266585 -9.543307) (xy -14.421079 -9.226212)
     (xy -14.630201 -9.065494) (xy -14.832134 -9.089043) (xy -14.939841 -9.239536) (xy -14.940375 -9.497869) (xy -14.838976 -9.876800) (xy -14.671053 -10.277127) (xy -14.472015 -10.599644) (xy -14.441727 -10.635109)
     (xy -14.155500 -10.836614) (xy -13.863676 -10.874580) )(layer F.SilkS) (width  0.000000)
  )
  (fp_poly (pts (xy 13.657415 -11.167220) (xy 13.979184 -10.986463) (xy 14.315167 -10.701932) (xy 14.610835 -10.369277) (xy 14.811658 -10.044149) (xy 14.863107 -9.782197) (xy 14.840466 -9.722949) (xy 14.638015 -9.595244)
     (xy 14.383980 -9.635454) (xy 14.201169 -9.819759) (xy 14.190278 -9.849066) (xy 14.038311 -10.088820) (xy 13.760153 -10.369096) (xy 13.663178 -10.447611) (xy 13.327730 -10.761445) (xy 13.228202 -11.006505)
     (xy 13.368008 -11.173012) (xy 13.404389 -11.188551) )(layer F.SilkS) (width  0.000000)
  )
  (fp_poly (pts (xy -11.325831 -11.330704) (xy -11.154138 -11.220827) (xy -11.047550 -11.011608) (xy -11.145760 -10.869593) (xy -11.464830 -10.787160) (xy -12.020825 -10.756686) (xy -12.133499 -10.756122) (xy -12.627653 -10.760478)
     (xy -12.914639 -10.784392) (xy -13.046452 -10.844133) (xy -13.075086 -10.955968) (xy -13.065391 -11.047704) (xy -13.018325 -11.205929) (xy -12.893151 -11.298774) (xy -12.629409 -11.348477) (xy -12.169631 -11.377140)
     (xy -11.647208 -11.381116) )(layer F.SilkS) (width  0.000000)
  )
  (fp_poly (pts (xy -7.148387 -11.362261) (xy -6.782834 -11.245089) (xy -6.628994 -11.065004) (xy -6.670472 -10.891391) (xy -6.844254 -10.809820) (xy -7.189240 -10.763488) (xy -7.625834 -10.750714) (xy -8.074442 -10.769818)
     (xy -8.455467 -10.819122) (xy -8.689315 -10.896945) (xy -8.723458 -10.934719) (xy -8.715009 -11.170462) (xy -8.472615 -11.323571) (xy -7.990642 -11.396630) (xy -7.700664 -11.404081) )(layer F.SilkS) (width  0.000000)
  )
  (fp_poly (pts (xy -2.747083 -11.362652) (xy -2.378478 -11.246272) (xy -2.222852 -11.066808) (xy -2.264349 -10.891391) (xy -2.431024 -10.821529) (xy -2.774834 -10.777602) (xy -3.215029 -10.759611) (xy -3.670862 -10.767557)
     (xy -4.061584 -10.801438) (xy -4.306447 -10.861255) (xy -4.344835 -10.891391) (xy -4.371317 -11.111681) (xy -4.166114 -11.278107) (xy -3.753301 -11.378802) (xy -3.304592 -11.404081) )(layer F.SilkS) (width  0.000000)
  )
  (fp_poly (pts (xy 1.659039 -11.362652) (xy 2.027644 -11.246272) (xy 2.183271 -11.066808) (xy 2.141773 -10.891391) (xy 1.975098 -10.821529) (xy 1.631289 -10.777602) (xy 1.191093 -10.759611) (xy 0.735260 -10.767557)
     (xy 0.344538 -10.801438) (xy 0.099675 -10.861255) (xy 0.061287 -10.891391) (xy 0.034806 -11.111681) (xy 0.240008 -11.278107) (xy 0.652821 -11.378802) (xy 1.101530 -11.404081) )(layer F.SilkS) (width  0.000000)
  )
  (fp_poly (pts (xy 6.086965 -11.365487) (xy 6.434269 -11.247982) (xy 6.545144 -11.048981) (xy 6.520395 -10.934719) (xy 6.365639 -10.846214) (xy 6.032620 -10.785572) (xy 5.600933 -10.754474) (xy 5.150175 -10.754598)
     (xy 4.759939 -10.787624) (xy 4.509822 -10.855233) (xy 4.467410 -10.891391) (xy 4.441301 -11.111426) (xy 4.646138 -11.278118) (xy 5.056931 -11.379030) (xy 5.497602 -11.404081) )(layer F.SilkS) (width  0.000000)
  )
  (fp_poly (pts (xy 10.493088 -11.365487) (xy 10.840392 -11.247982) (xy 10.951267 -11.048981) (xy 10.926518 -10.934719) (xy 10.771761 -10.846214) (xy 10.438742 -10.785572) (xy 10.007056 -10.754474) (xy 9.556297 -10.754598)
     (xy 9.166062 -10.787624) (xy 8.915945 -10.855233) (xy 8.873532 -10.891391) (xy 8.847424 -11.111426) (xy 9.052261 -11.278118) (xy 9.463054 -11.379030) (xy 9.903725 -11.404081) )(layer F.SilkS) (width  0.000000)
  )
)
