(footprint "CCC_Stern_1" (version 20210606) (generator bitmap2component) (layer "F.Cu")
  (at 0 0)
(attr board_only exclude_from_pos_files exclude_from_bom)
 (fp_text reference "G*" (at 0 0) (layer F.SilkS)
  (effects (font (thickness 0.3)))
  )
  (fp_text value "LOGO" (at 0.75 0) (layer F.SilkS) hide
  (effects (font (thickness 0.3)))
  )
  (fp_poly (pts (xy -0.447708 -3.192980) (xy -0.408398 -3.145661) (xy -0.347081 -3.069731) (xy -0.266340 -2.968447) (xy -0.168754 -2.845063) (xy -0.056908 -2.702838) (xy 0.066619 -2.545026) (xy 0.199244 -2.374884)
     (xy 0.240332 -2.322036) (xy 0.935211 -1.427756) (xy 1.039328 -1.435944) (xy 1.094116 -1.439763) (xy 1.184942 -1.445519) (xy 1.306255 -1.452897) (xy 1.452507 -1.461585) (xy 1.618150 -1.471269)
     (xy 1.797635 -1.481635) (xy 1.985412 -1.492370) (xy 2.175934 -1.503160) (xy 2.363651 -1.513691) (xy 2.543014 -1.523651) (xy 2.708476 -1.532725) (xy 2.854486 -1.540601) (xy 2.975496 -1.546963)
     (xy 3.065959 -1.551500) (xy 3.120323 -1.553897) (xy 3.132016 -1.554196) (xy 3.149509 -1.553368) (xy 3.160686 -1.548465) (xy 3.163475 -1.535859) (xy 3.155807 -1.511921) (xy 3.135613 -1.473024)
     (xy 3.100821 -1.415538) (xy 3.049361 -1.335835) (xy 2.979164 -1.230287) (xy 2.888160 -1.095265) (xy 2.774278 -0.927142) (xy 2.774159 -0.926967) (xy 2.661644 -0.760886) (xy 2.546638 -0.590933)
     (xy 2.434218 -0.424627) (xy 2.329461 -0.269483) (xy 2.237445 -0.133018) (xy 2.163247 -0.022750) (xy 2.139550 0.012554) (xy 1.930141 0.324846) (xy 2.341063 1.376756) (xy 2.420758 1.581082)
     (xy 2.495165 1.772471) (xy 2.562787 1.947024) (xy 2.622124 2.100843) (xy 2.671678 2.230026) (xy 2.709949 2.330677) (xy 2.735438 2.398894) (xy 2.746645 2.430780) (xy 2.747016 2.432671)
     (xy 2.725371 2.427477) (xy 2.665244 2.411043) (xy 2.570784 2.384549) (xy 2.446140 2.349179) (xy 2.295463 2.306114) (xy 2.122902 2.256536) (xy 1.932607 2.201629) (xy 1.728727 2.142575)
     (xy 1.720717 2.140251) (xy 1.513674 2.080295) (xy 1.317807 2.023836) (xy 1.137621 1.972154) (xy 0.977621 1.926528) (xy 0.842313 1.888240) (xy 0.736200 1.858568) (xy 0.663789 1.838794)
     (xy 0.629838 1.830247) (xy 0.612341 1.828547) (xy 0.592169 1.831657) (xy 0.566281 1.841831) (xy 0.531639 1.861323) (xy 0.485203 1.892388) (xy 0.423934 1.937281) (xy 0.344794 1.998256)
     (xy 0.244743 2.077567) (xy 0.120742 2.177469) (xy -0.030248 2.300217) (xy -0.211267 2.448065) (xy -0.291578 2.513767) (xy -0.460099 2.651553) (xy -0.618655 2.780962) (xy -0.763837 2.899230)
     (xy -0.892240 3.003592) (xy -1.000456 3.091283) (xy -1.085080 3.159540) (xy -1.142704 3.205598) (xy -1.169922 3.226693) (xy -1.171197 3.227548) (xy -1.186900 3.225987) (xy -1.195687 3.193665)
     (xy -1.198931 3.124502) (xy -1.199036 3.104151) (xy -1.199811 3.052556) (xy -1.201992 2.961917) (xy -1.205420 2.837567) (xy -1.209933 2.684841) (xy -1.215373 2.509073) (xy -1.221577 2.315596)
     (xy -1.228387 2.109744) (xy -1.232911 1.976271) (xy -1.242134 1.717915) (xy -1.250729 1.501694) (xy -1.258830 1.325345) (xy -1.266575 1.186605) (xy -1.274099 1.083210) (xy -1.281539 1.012896)
     (xy -1.289031 0.973399) (xy -1.293883 0.963280) (xy -1.317477 0.946645) (xy -1.374810 0.908517) (xy -1.462190 0.851290) (xy -1.575922 0.777357) (xy -1.712313 0.689113) (xy -1.867670 0.588951)
     (xy -2.038298 0.479266) (xy -2.220505 0.362451) (xy -2.251578 0.342560) (xy -2.433530 0.225727) (xy -2.602926 0.116214) (xy -2.756307 0.016310) (xy -2.890213 -0.071697) (xy -3.001188 -0.145518)
     (xy -3.085772 -0.202865) (xy -3.140507 -0.241451) (xy -3.161935 -0.258986) (xy -3.161892 -0.259776) (xy -3.105418 -0.279368) (xy -3.016484 -0.310929) (xy -2.899897 -0.352706) (xy -2.760461 -0.402948)
     (xy -2.602982 -0.459900) (xy -2.432265 -0.521811) (xy -2.253116 -0.586928) (xy -2.070340 -0.653498) (xy -1.888742 -0.719769) (xy -1.713128 -0.783987) (xy -1.548303 -0.844401) (xy -1.399072 -0.899257)
     (xy -1.270242 -0.946803) (xy -1.166616 -0.985286) (xy -1.093001 -1.012954) (xy -1.054202 -1.028053) (xy -1.049390 -1.030272) (xy -1.041376 -1.053675) (xy -1.023289 -1.115926) (xy -0.996248 -1.212898)
     (xy -0.961372 -1.340466) (xy -0.919779 -1.494506) (xy -0.872589 -1.670891) (xy -0.820919 -1.865497) (xy -0.765889 -2.074198) (xy -0.753363 -2.121900) (xy -0.697872 -2.332938) (xy -0.645673 -2.530629)
     (xy -0.597864 -2.710874) (xy -0.555543 -2.869576) (xy -0.519806 -3.002636) (xy -0.491750 -3.105956) (xy -0.472474 -3.175436) (xy -0.463075 -3.206979) (xy -0.462431 -3.208432) )(layer F.SilkS) (width  0.000000)
  )
)
