(footprint "Hack_parallel" (version 20210606) (generator bitmap2component) (layer "F.Cu")
  (at 0 0)
(attr board_only exclude_from_pos_files exclude_from_bom)
 (fp_text reference "G*" (at 0 0) (layer F.SilkS)
  (effects (font (thickness 0.3)))
  )
  (fp_text value "LOGO" (at 0.75 0) (layer F.SilkS) hide
  (effects (font (thickness 0.3)))
  )
  (fp_poly (pts (xy -16.202603 -1.547008) (xy -15.909256 -1.451634) (xy -15.865029 -1.426752) (xy -15.709935 -1.305474) (xy -15.569905 -1.155322) (xy -15.472705 -1.012452) (xy -15.446098 -0.913019) (xy -15.457440 -0.895974)
     (xy -15.672310 -0.747811) (xy -15.818617 -0.683931) (xy -15.938401 -0.700989) (xy -16.073705 -0.795640) (xy -16.128105 -0.842611) (xy -16.357481 -1.005136) (xy -16.566303 -1.049727) (xy -16.800095 -0.983137)
     (xy -16.864190 -0.951769) (xy -17.021973 -0.849528) (xy -17.125237 -0.717990) (xy -17.184694 -0.527326) (xy -17.211055 -0.247706) (xy -17.215555 0.026705) (xy -17.211091 0.331074) (xy -17.192235 0.533138)
     (xy -17.150789 0.671569) (xy -17.078556 0.785036) (xy -17.046655 0.823490) (xy -16.893789 0.959775) (xy -16.710489 1.014176) (xy -16.580823 1.019849) (xy -16.355468 0.996443) (xy -16.190129 0.903612)
     (xy -16.089294 0.802055) (xy -15.894695 0.584261) (xy -15.367901 0.902195) (xy -15.622282 1.183764) (xy -15.907223 1.426839) (xy -16.189297 1.544056) (xy -16.462543 1.602658) (xy -16.670701 1.611633)
     (xy -16.881579 1.568806) (xy -17.039166 1.516793) (xy -17.396859 1.319689) (xy -17.666891 1.018087) (xy -17.842753 0.622933) (xy -17.917936 0.145173) (xy -17.920324 0.035278) (xy -17.869872 -0.465236)
     (xy -17.723957 -0.893618) (xy -17.490740 -1.233077) (xy -17.194269 -1.458679) (xy -16.903949 -1.551944) (xy -16.553781 -1.580916) )(layer F.SilkS) (width  0.000000)
  )
  (fp_poly (pts (xy -5.189268 -1.535157) (xy -4.893272 -1.402408) (xy -4.747412 -1.290716) (xy -4.604453 -1.146481) (xy -4.495044 -1.006070) (xy -4.449837 -0.905847) (xy -4.457001 -0.884796) (xy -4.529095 -0.842698)
     (xy -4.677822 -0.764207) (xy -4.716724 -0.744302) (xy -4.875299 -0.670709) (xy -4.962679 -0.667187) (xy -5.031624 -0.736366) (xy -5.049052 -0.760883) (xy -5.248667 -0.937701) (xy -5.507034 -1.022614)
     (xy -5.782860 -1.017507) (xy -6.034850 -0.924265) (xy -6.221711 -0.744773) (xy -6.243755 -0.706350) (xy -6.307568 -0.495260) (xy -6.342145 -0.199439) (xy -6.346241 0.127534) (xy -6.318613 0.432085)
     (xy -6.274532 0.618764) (xy -6.142913 0.828442) (xy -5.941810 0.963762) (xy -5.703117 1.026371) (xy -5.458725 1.017912) (xy -5.240530 0.940032) (xy -5.080423 0.794374) (xy -5.010298 0.582585)
     (xy -5.009444 0.553509) (xy -5.021671 0.424676) (xy -5.085208 0.367400) (xy -5.240341 0.353028) (xy -5.291666 0.352778) (xy -5.472363 0.345302) (xy -5.552666 0.299142) (xy -5.573257 0.178701)
     (xy -5.573888 0.105834) (xy -5.573888 -0.141111) (xy -4.374444 -0.141111) (xy -4.374444 1.552223) (xy -4.656666 1.552223) (xy -4.837466 1.544910) (xy -4.918544 1.497517) (xy -4.941277 1.371857)
     (xy -4.943361 1.287639) (xy -4.952039 1.131734) (xy -4.974600 1.104493) (xy -5.005589 1.164167) (xy -5.169695 1.391906) (xy -5.424053 1.538942) (xy -5.736851 1.595373) (xy -6.076274 1.551293)
     (xy -6.160642 1.523747) (xy -6.466713 1.372969) (xy -6.687808 1.161122) (xy -6.865542 0.848274) (xy -6.866267 0.846667) (xy -6.958560 0.535687) (xy -7.003789 0.153121) (xy -7.001096 -0.245053)
     (xy -6.949622 -0.602855) (xy -6.891248 -0.783519) (xy -6.669539 -1.126614) (xy -6.359504 -1.382303) (xy -5.990126 -1.541608) (xy -5.590386 -1.595552) )(layer F.SilkS) (width  0.000000)
  )
  (fp_poly (pts (xy -23.338997 -0.934861) (xy -23.318611 -0.317500) (xy -22.701250 -0.297114) (xy -22.083888 -0.276728) (xy -22.083888 -1.552222) (xy -21.448888 -1.552222) (xy -21.448888 1.552223) (xy -22.083888 1.552223)
     (xy -22.083888 0.282223) (xy -23.353888 0.282223) (xy -23.353888 1.552223) (xy -23.988888 1.552223) (xy -23.988888 -1.552222) (xy -23.359382 -1.552222) )(layer F.SilkS) (width  0.000000)
  )
  (fp_poly (pts (xy -18.731148 -0.098989) (xy -18.591589 0.334455) (xy -18.464963 0.726038) (xy -18.358176 1.054542) (xy -18.278132 1.298748) (xy -18.231737 1.437440) (xy -18.224594 1.457474) (xy -18.226346 1.518871)
     (xy -18.312470 1.543842) (xy -18.509824 1.539696) (xy -18.523571 1.538824) (xy -18.722090 1.520438) (xy -18.835657 1.474448) (xy -18.907820 1.365076) (xy -18.979592 1.164167) (xy -19.097023 0.811389)
     (xy -19.632117 0.790888) (xy -20.167211 0.770386) (xy -20.280854 1.161304) (xy -20.394497 1.552223) (xy -20.710026 1.552223) (xy -20.898734 1.541653) (xy -21.011483 1.514928) (xy -21.025555 1.499342)
     (xy -21.004149 1.419839) (xy -20.944184 1.226383) (xy -20.852037 0.938785) (xy -20.734087 0.576856) (xy -20.596713 0.160408) (xy -20.562961 0.058891) (xy -19.952761 0.058891) (xy -19.951157 0.190784)
     (xy -19.890094 0.256761) (xy -19.764138 0.279633) (xy -19.614444 0.282223) (xy -19.413161 0.273355) (xy -19.285434 0.250683) (xy -19.261666 0.232947) (xy -19.281232 0.147628) (xy -19.333566 -0.038845)
     (xy -19.409119 -0.293010) (xy -19.447883 -0.419692) (xy -19.634100 -1.023055) (xy -19.799324 -0.493889) (xy -19.900338 -0.161730) (xy -19.952761 0.058891) (xy -20.562961 0.058891) (xy -20.525799 -0.052880)
     (xy -20.026043 -1.552222) (xy -19.198089 -1.552222) )(layer F.SilkS) (width  0.000000)
  )
  (fp_poly (pts (xy -14.307526 -0.795165) (xy -14.287500 -0.038108) (xy -13.119166 -1.552222) (xy -12.759832 -1.552222) (xy -12.548966 -1.544291) (xy -12.458397 -1.516455) (xy -12.466946 -1.464027) (xy -12.538138 -1.373825)
     (xy -12.675773 -1.202689) (xy -12.857003 -0.978954) (xy -12.979568 -0.828299) (xy -13.425742 -0.280765) (xy -13.216693 0.053645) (xy -13.082484 0.267973) (xy -12.904169 0.552246) (xy -12.712798 0.856979)
     (xy -12.641672 0.970139) (xy -12.275699 1.552223) (xy -13.038545 1.552223) (xy -13.442297 0.899584) (xy -13.608727 0.631831) (xy -13.747290 0.411294) (xy -13.841575 0.263944) (xy -13.874209 0.216084)
     (xy -13.931831 0.245561) (xy -14.045438 0.355598) (xy -14.109706 0.427751) (xy -14.228654 0.586434) (xy -14.291842 0.742920) (xy -14.316515 0.953283) (xy -14.319910 1.111250) (xy -14.322777 1.552223)
     (xy -14.957777 1.552223) (xy -14.957777 -1.552222) (xy -14.327551 -1.552222) )(layer F.SilkS) (width  0.000000)
  )
  (fp_poly (pts (xy -10.583333 -1.305277) (xy -10.595133 -1.139365) (xy -10.654983 -1.071315) (xy -10.795000 -1.058333) (xy -11.006666 -1.058333) (xy -11.006666 1.058334) (xy -10.795000 1.058334) (xy -10.652789 1.072100)
     (xy -10.594460 1.141925) (xy -10.583333 1.305278) (xy -10.583333 1.552223) (xy -12.065000 1.552223) (xy -12.065000 1.305278) (xy -12.053200 1.139366) (xy -11.993350 1.071315) (xy -11.853333 1.058334)
     (xy -11.641666 1.058334) (xy -11.641666 -1.058333) (xy -11.853333 -1.058333) (xy -11.995544 -1.072099) (xy -12.053873 -1.141924) (xy -12.065000 -1.305277) (xy -12.065000 -1.552222) (xy -10.583333 -1.552222)
     )(layer F.SilkS) (width  0.000000)
  )
  (fp_poly (pts (xy -7.549444 1.559597) (xy -7.914460 1.538271) (xy -8.279475 1.516945) (xy -8.593784 0.987778) (xy -8.786199 0.653925) (xy -8.993474 0.278939) (xy -9.172022 -0.058264) (xy -9.178310 -0.070555)
     (xy -9.448528 -0.599722) (xy -9.451486 0.476250) (xy -9.454444 1.552223) (xy -10.089444 1.552223) (xy -10.089444 -1.552222) (xy -9.719027 -1.551976) (xy -9.348611 -1.551731) (xy -8.840650 -0.652393)
     (xy -8.656395 -0.323438) (xy -8.495312 -0.030732) (xy -8.371231 0.200212) (xy -8.297978 0.343882) (xy -8.286296 0.370417) (xy -8.225925 0.485998) (xy -8.179077 0.472668) (xy -8.145231 0.327705)
     (xy -8.123866 0.048387) (xy -8.114458 -0.368006) (xy -8.113888 -0.529166) (xy -8.113888 -1.552222) (xy -7.549444 -1.552222) )(layer F.SilkS) (width  0.000000)
  )
  (fp_poly (pts (xy -1.481666 -1.309964) (xy -1.496903 -1.142554) (xy -1.565409 -1.068333) (xy -1.675694 -1.045381) (xy -1.869722 -1.023055) (xy -1.869722 1.023056) (xy -1.675694 1.045381) (xy -1.543017 1.079672)
     (xy -1.489885 1.171320) (xy -1.481666 1.309965) (xy -1.481666 1.552223) (xy -2.892777 1.552223) (xy -2.892777 1.305278) (xy -2.879599 1.138280) (xy -2.820294 1.069914) (xy -2.716388 1.058334)
     (xy -2.540000 1.058334) (xy -2.540000 -1.058333) (xy -2.716388 -1.058333) (xy -2.835673 -1.076783) (xy -2.884506 -1.159809) (xy -2.892777 -1.305277) (xy -2.892777 -1.552222) (xy -1.481666 -1.552222)
     )(layer F.SilkS) (width  0.000000)
  )
  (fp_poly (pts (xy 0.268931 -0.687916) (xy 0.457962 -0.356212) (xy 0.628245 -0.050908) (xy 0.763680 0.198672) (xy 0.848171 0.363205) (xy 0.859641 0.388056) (xy 0.895164 0.455764) (xy 0.921212 0.461799)
     (xy 0.939822 0.390487) (xy 0.953031 0.226155) (xy 0.962876 -0.046870) (xy 0.971394 -0.444263) (xy 0.971977 -0.476250) (xy 0.991454 -1.552222) (xy 1.552223 -1.552222) (xy 1.552223 1.552223)
     (xy 0.860137 1.552223) (xy 0.627579 1.146528) (xy 0.490323 0.905314) (xy 0.312699 0.590681) (xy 0.122853 0.252571) (xy 0.021121 0.070565) (xy -0.352777 -0.599704) (xy -0.352777 1.552223)
     (xy -0.917222 1.552223) (xy -0.917222 -1.552222) (xy -0.228919 -1.552222) )(layer F.SilkS) (width  0.000000)
  )
  (fp_poly (pts (xy 4.474817 -1.540842) (xy 4.827142 -1.506354) (xy 5.045444 -1.450634) (xy 5.304923 -1.273857) (xy 5.477157 -1.018095) (xy 5.562146 -0.715272) (xy 5.559891 -0.397313) (xy 5.470390 -0.096141)
     (xy 5.293645 0.156319) (xy 5.045444 0.321746) (xy 4.847637 0.374299) (xy 4.571877 0.411002) (xy 4.306155 0.423334) (xy 3.810000 0.423334) (xy 3.810000 1.552223) (xy 3.175000 1.552223)
     (xy 3.175000 -0.141111) (xy 3.810000 -0.141111) (xy 4.263572 -0.141111) (xy 4.571978 -0.157014) (xy 4.763927 -0.207517) (xy 4.828016 -0.251984) (xy 4.911092 -0.403508) (xy 4.938889 -0.564444)
     (xy 4.905045 -0.768492) (xy 4.790995 -0.899211) (xy 4.577960 -0.968371) (xy 4.263572 -0.987777) (xy 3.810000 -0.987777) (xy 3.810000 -0.141111) (xy 3.175000 -0.141111) (xy 3.175000 -1.552222)
     (xy 3.988655 -1.552222) )(layer F.SilkS) (width  0.000000)
  )
  (fp_poly (pts (xy 7.650694 -1.516944) (xy 8.125309 -0.070555) (xy 8.265470 0.359990) (xy 8.389586 0.747756) (xy 8.491144 1.071855) (xy 8.563629 1.311397) (xy 8.600529 1.445496) (xy 8.603851 1.464028)
     (xy 8.539820 1.525864) (xy 8.343894 1.551544) (xy 8.292249 1.552223) (xy 7.976720 1.552223) (xy 7.863077 1.161304) (xy 7.749434 0.770386) (xy 7.214340 0.790888) (xy 6.679246 0.811389)
     (xy 6.561815 1.164167) (xy 6.487659 1.369703) (xy 6.414699 1.476822) (xy 6.300854 1.521416) (xy 6.123410 1.538105) (xy 5.802437 1.559265) (xy 6.230529 0.233468) (xy 6.843889 0.233468)
     (xy 6.907376 0.261286) (xy 7.069693 0.278938) (xy 7.196667 0.282223) (xy 7.438979 0.265105) (xy 7.544607 0.213782) (xy 7.549668 0.194028) (xy 7.530556 0.074616) (xy 7.480918 -0.121610)
     (xy 7.412826 -0.355937) (xy 7.338347 -0.589652) (xy 7.269551 -0.784044) (xy 7.218508 -0.900400) (xy 7.203221 -0.917222) (xy 7.169335 -0.855522) (xy 7.109928 -0.695760) (xy 7.036869 -0.475940)
     (xy 6.962026 -0.234068) (xy 6.897266 -0.008148) (xy 6.854458 0.163813) (xy 6.843889 0.233468) (xy 6.230529 0.233468) (xy 6.305524 0.001209) (xy 6.808612 -1.556846) )(layer F.SilkS) (width  0.000000)
  )
  (fp_poly (pts (xy 10.312030 -1.541732) (xy 10.662823 -1.505535) (xy 10.920550 -1.436546) (xy 11.108620 -1.327676) (xy 11.250437 -1.171839) (xy 11.287081 -1.115495) (xy 11.404321 -0.802449) (xy 11.422395 -0.450009)
     (xy 11.341164 -0.117582) (xy 11.289663 -0.017639) (xy 11.186568 0.130658) (xy 11.107351 0.209097) (xy 11.095899 0.212747) (xy 10.993979 0.247515) (xy 10.947981 0.273394) (xy 10.915200 0.329909)
     (xy 10.933880 0.442935) (xy 11.010824 0.634656) (xy 11.142009 0.905747) (xy 11.268951 1.162019) (xy 11.367324 1.367841) (xy 11.422807 1.492898) (xy 11.430000 1.515379) (xy 11.366616 1.536691)
     (xy 11.205070 1.549995) (xy 11.088349 1.552223) (xy 10.746697 1.552223) (xy 10.481820 0.987778) (xy 10.353466 0.718624) (xy 10.261257 0.552420) (xy 10.181438 0.464351) (xy 10.090254 0.429599)
     (xy 9.963951 0.423347) (xy 9.941527 0.423334) (xy 9.666112 0.423334) (xy 9.666112 1.552223) (xy 9.031112 1.552223) (xy 9.031112 -0.141111) (xy 9.666112 -0.141111) (xy 10.119683 -0.141111)
     (xy 10.428089 -0.157014) (xy 10.620038 -0.207517) (xy 10.684127 -0.251984) (xy 10.767203 -0.403508) (xy 10.795000 -0.564444) (xy 10.761156 -0.768492) (xy 10.647106 -0.899211) (xy 10.434071 -0.968371)
     (xy 10.119683 -0.987777) (xy 9.666112 -0.987777) (xy 9.666112 -0.141111) (xy 9.031112 -0.141111) (xy 9.031112 -1.552222) (xy 9.844767 -1.552222) )(layer F.SilkS) (width  0.000000)
  )
  (fp_poly (pts (xy 14.081909 0.017639) (xy 14.594038 1.552223) (xy 13.909458 1.552223) (xy 13.682140 0.770277) (xy 13.138482 0.790833) (xy 12.594825 0.811389) (xy 12.384329 1.552223) (xy 11.723185 1.552223)
     (xy 12.163460 0.232947) (xy 12.770556 0.232947) (xy 12.834042 0.261062) (xy 12.996358 0.278903) (xy 13.123334 0.282223) (xy 13.337736 0.273452) (xy 13.444054 0.239564) (xy 13.474644 0.169189)
     (xy 13.474775 0.158750) (xy 13.453863 0.034746) (xy 13.399773 -0.180649) (xy 13.323394 -0.444769) (xy 13.308214 -0.493889) (xy 13.142990 -1.023055) (xy 12.956773 -0.419692) (xy 12.873929 -0.146090)
     (xy 12.810036 0.074778) (xy 12.774642 0.209451) (xy 12.770556 0.232947) (xy 12.163460 0.232947) (xy 12.235314 0.017639) (xy 12.747442 -1.516944) (xy 13.569781 -1.516944) )(layer F.SilkS) (width  0.000000)
  )
  (fp_poly (pts (xy 15.592778 0.987778) (xy 16.792223 0.987778) (xy 16.792223 1.552223) (xy 14.957778 1.552223) (xy 14.957778 -1.552222) (xy 15.592778 -1.552222) )(layer F.SilkS) (width  0.000000)
  )
  (fp_poly (pts (xy 17.921112 0.987778) (xy 19.120556 0.987778) (xy 19.120556 1.552223) (xy 17.286112 1.552223) (xy 17.286112 -1.552222) (xy 17.921112 -1.552222) )(layer F.SilkS) (width  0.000000)
  )
  (fp_poly (pts (xy 21.660556 -0.987777) (xy 20.178889 -0.987777) (xy 20.178889 -0.282222) (xy 21.448889 -0.282222) (xy 21.448889 0.282223) (xy 20.178889 0.282223) (xy 20.178889 0.987778) (xy 21.660556 0.987778)
     (xy 21.660556 1.552223) (xy 19.543889 1.552223) (xy 19.543889 -1.552222) (xy 21.660556 -1.552222) )(layer F.SilkS) (width  0.000000)
  )
  (fp_poly (pts (xy 22.860000 0.987778) (xy 24.059445 0.987778) (xy 24.059445 1.552223) (xy 22.225000 1.552223) (xy 22.225000 -1.552222) (xy 22.860000 -1.552222) )(layer F.SilkS) (width  0.000000)
  )
)
