(kicad_sch (version 20211123) (generator eeschema)

  (uuid baecefa6-fc3b-4552-ad2a-37ff533a09fe)

  (paper "A4")

  (title_block
    (title "HiP Berlin Hardware Badge")
    (date "2022-12-08")
    (rev "0.8.6")
    (company "HiP Berlin, Badge Team")
    (comment 1 "Copyright © 2022, HiP Berlin")
    (comment 2 "Serving HiP 2022 conference visitors")
    (comment 3 "Pending quality assurance testing")
    (comment 4 "Warning, untested prototype!")
  )

  (lib_symbols
    (symbol "Device:C" (pin_numbers hide) (pin_names (offset 0.254)) (in_bom yes) (on_board yes)
      (property "Reference" "C" (id 0) (at 0.635 2.54 0)
        (effects (font (size 1.27 1.27)) (justify left))
      )
      (property "Value" "C" (id 1) (at 0.635 -2.54 0)
        (effects (font (size 1.27 1.27)) (justify left))
      )
      (property "Footprint" "" (id 2) (at 0.9652 -3.81 0)
        (effects (font (size 1.27 1.27)) hide)
      )
      (property "Datasheet" "~" (id 3) (at 0 0 0)
        (effects (font (size 1.27 1.27)) hide)
      )
      (property "ki_keywords" "cap capacitor" (id 4) (at 0 0 0)
        (effects (font (size 1.27 1.27)) hide)
      )
      (property "ki_description" "Unpolarized capacitor" (id 5) (at 0 0 0)
        (effects (font (size 1.27 1.27)) hide)
      )
      (property "ki_fp_filters" "C_*" (id 6) (at 0 0 0)
        (effects (font (size 1.27 1.27)) hide)
      )
      (symbol "C_0_1"
        (polyline
          (pts
            (xy -2.032 -0.762)
            (xy 2.032 -0.762)
          )
          (stroke (width 0.508) (type default) (color 0 0 0 0))
          (fill (type none))
        )
        (polyline
          (pts
            (xy -2.032 0.762)
            (xy 2.032 0.762)
          )
          (stroke (width 0.508) (type default) (color 0 0 0 0))
          (fill (type none))
        )
      )
      (symbol "C_1_1"
        (pin passive line (at 0 3.81 270) (length 2.794)
          (name "~" (effects (font (size 1.27 1.27))))
          (number "1" (effects (font (size 1.27 1.27))))
        )
        (pin passive line (at 0 -3.81 90) (length 2.794)
          (name "~" (effects (font (size 1.27 1.27))))
          (number "2" (effects (font (size 1.27 1.27))))
        )
      )
    )
    (symbol "LED:WS2812B" (pin_names (offset 0.254)) (in_bom yes) (on_board yes)
      (property "Reference" "D" (id 0) (at 5.08 5.715 0)
        (effects (font (size 1.27 1.27)) (justify right bottom))
      )
      (property "Value" "WS2812B" (id 1) (at 1.27 -5.715 0)
        (effects (font (size 1.27 1.27)) (justify left top))
      )
      (property "Footprint" "LED_SMD:LED_WS2812B_PLCC4_5.0x5.0mm_P3.2mm" (id 2) (at 1.27 -7.62 0)
        (effects (font (size 1.27 1.27)) (justify left top) hide)
      )
      (property "Datasheet" "https://cdn-shop.adafruit.com/datasheets/WS2812B.pdf" (id 3) (at 2.54 -9.525 0)
        (effects (font (size 1.27 1.27)) (justify left top) hide)
      )
      (property "ki_keywords" "RGB LED NeoPixel addressable" (id 4) (at 0 0 0)
        (effects (font (size 1.27 1.27)) hide)
      )
      (property "ki_description" "RGB LED with integrated controller" (id 5) (at 0 0 0)
        (effects (font (size 1.27 1.27)) hide)
      )
      (property "ki_fp_filters" "LED*WS2812*PLCC*5.0x5.0mm*P3.2mm*" (id 6) (at 0 0 0)
        (effects (font (size 1.27 1.27)) hide)
      )
      (symbol "WS2812B_0_0"
        (text "RGB" (at 2.286 -4.191 0)
          (effects (font (size 0.762 0.762)))
        )
      )
      (symbol "WS2812B_0_1"
        (polyline
          (pts
            (xy 1.27 -3.556)
            (xy 1.778 -3.556)
          )
          (stroke (width 0) (type default) (color 0 0 0 0))
          (fill (type none))
        )
        (polyline
          (pts
            (xy 1.27 -2.54)
            (xy 1.778 -2.54)
          )
          (stroke (width 0) (type default) (color 0 0 0 0))
          (fill (type none))
        )
        (polyline
          (pts
            (xy 4.699 -3.556)
            (xy 2.667 -3.556)
          )
          (stroke (width 0) (type default) (color 0 0 0 0))
          (fill (type none))
        )
        (polyline
          (pts
            (xy 2.286 -2.54)
            (xy 1.27 -3.556)
            (xy 1.27 -3.048)
          )
          (stroke (width 0) (type default) (color 0 0 0 0))
          (fill (type none))
        )
        (polyline
          (pts
            (xy 2.286 -1.524)
            (xy 1.27 -2.54)
            (xy 1.27 -2.032)
          )
          (stroke (width 0) (type default) (color 0 0 0 0))
          (fill (type none))
        )
        (polyline
          (pts
            (xy 3.683 -1.016)
            (xy 3.683 -3.556)
            (xy 3.683 -4.064)
          )
          (stroke (width 0) (type default) (color 0 0 0 0))
          (fill (type none))
        )
        (polyline
          (pts
            (xy 4.699 -1.524)
            (xy 2.667 -1.524)
            (xy 3.683 -3.556)
            (xy 4.699 -1.524)
          )
          (stroke (width 0) (type default) (color 0 0 0 0))
          (fill (type none))
        )
        (rectangle (start 5.08 5.08) (end -5.08 -5.08)
          (stroke (width 0.254) (type default) (color 0 0 0 0))
          (fill (type background))
        )
      )
      (symbol "WS2812B_1_1"
        (pin power_in line (at 0 7.62 270) (length 2.54)
          (name "VDD" (effects (font (size 1.27 1.27))))
          (number "1" (effects (font (size 1.27 1.27))))
        )
        (pin output line (at 7.62 0 180) (length 2.54)
          (name "DOUT" (effects (font (size 1.27 1.27))))
          (number "2" (effects (font (size 1.27 1.27))))
        )
        (pin power_in line (at 0 -7.62 90) (length 2.54)
          (name "VSS" (effects (font (size 1.27 1.27))))
          (number "3" (effects (font (size 1.27 1.27))))
        )
        (pin input line (at -7.62 0 0) (length 2.54)
          (name "DIN" (effects (font (size 1.27 1.27))))
          (number "4" (effects (font (size 1.27 1.27))))
        )
      )
    )
    (symbol "power:GND" (power) (pin_names (offset 0)) (in_bom yes) (on_board yes)
      (property "Reference" "#PWR" (id 0) (at 0 -6.35 0)
        (effects (font (size 1.27 1.27)) hide)
      )
      (property "Value" "GND" (id 1) (at 0 -3.81 0)
        (effects (font (size 1.27 1.27)))
      )
      (property "Footprint" "" (id 2) (at 0 0 0)
        (effects (font (size 1.27 1.27)) hide)
      )
      (property "Datasheet" "" (id 3) (at 0 0 0)
        (effects (font (size 1.27 1.27)) hide)
      )
      (property "ki_keywords" "power-flag" (id 4) (at 0 0 0)
        (effects (font (size 1.27 1.27)) hide)
      )
      (property "ki_description" "Power symbol creates a global label with name \"GND\" , ground" (id 5) (at 0 0 0)
        (effects (font (size 1.27 1.27)) hide)
      )
      (symbol "GND_0_1"
        (polyline
          (pts
            (xy 0 0)
            (xy 0 -1.27)
            (xy 1.27 -1.27)
            (xy 0 -2.54)
            (xy -1.27 -1.27)
            (xy 0 -1.27)
          )
          (stroke (width 0) (type default) (color 0 0 0 0))
          (fill (type none))
        )
      )
      (symbol "GND_1_1"
        (pin power_in line (at 0 0 270) (length 0) hide
          (name "GND" (effects (font (size 1.27 1.27))))
          (number "1" (effects (font (size 1.27 1.27))))
        )
      )
    )
    (symbol "power:VCC" (power) (pin_names (offset 0)) (in_bom yes) (on_board yes)
      (property "Reference" "#PWR" (id 0) (at 0 -3.81 0)
        (effects (font (size 1.27 1.27)) hide)
      )
      (property "Value" "VCC" (id 1) (at 0 3.81 0)
        (effects (font (size 1.27 1.27)))
      )
      (property "Footprint" "" (id 2) (at 0 0 0)
        (effects (font (size 1.27 1.27)) hide)
      )
      (property "Datasheet" "" (id 3) (at 0 0 0)
        (effects (font (size 1.27 1.27)) hide)
      )
      (property "ki_keywords" "power-flag" (id 4) (at 0 0 0)
        (effects (font (size 1.27 1.27)) hide)
      )
      (property "ki_description" "Power symbol creates a global label with name \"VCC\"" (id 5) (at 0 0 0)
        (effects (font (size 1.27 1.27)) hide)
      )
      (symbol "VCC_0_1"
        (polyline
          (pts
            (xy -0.762 1.27)
            (xy 0 2.54)
          )
          (stroke (width 0) (type default) (color 0 0 0 0))
          (fill (type none))
        )
        (polyline
          (pts
            (xy 0 0)
            (xy 0 2.54)
          )
          (stroke (width 0) (type default) (color 0 0 0 0))
          (fill (type none))
        )
        (polyline
          (pts
            (xy 0 2.54)
            (xy 0.762 1.27)
          )
          (stroke (width 0) (type default) (color 0 0 0 0))
          (fill (type none))
        )
      )
      (symbol "VCC_1_1"
        (pin power_in line (at 0 0 90) (length 0) hide
          (name "VCC" (effects (font (size 1.27 1.27))))
          (number "1" (effects (font (size 1.27 1.27))))
        )
      )
    )
  )

  (junction (at 170.18 99.06) (diameter 0) (color 0 0 0 0)
    (uuid 020ad314-292a-41fe-8210-1dc7fefea9bd)
  )
  (junction (at 78.74 185.42) (diameter 0) (color 0 0 0 0)
    (uuid 0b5a7288-39d6-40c9-bd65-34463d53b7ce)
  )
  (junction (at 231.14 114.3) (diameter 0) (color 0 0 0 0)
    (uuid 133fb384-d18a-43db-bd08-cfa8bcb1d102)
  )
  (junction (at 109.22 185.42) (diameter 0) (color 0 0 0 0)
    (uuid 15a5425a-a27a-4643-ba1f-41acd009c999)
  )
  (junction (at 200.66 114.3) (diameter 0) (color 0 0 0 0)
    (uuid 1999a61e-785b-472c-894e-877b0efae31e)
  )
  (junction (at 259.08 114.3) (diameter 0) (color 0 0 0 0)
    (uuid 1d6b1a47-f459-4b43-b488-dac8eda1c4a9)
  )
  (junction (at 25.4 99.06) (diameter 0) (color 0 0 0 0)
    (uuid 2221a7c5-25cc-4f23-995d-f0c93d5f6e82)
  )
  (junction (at 170.18 114.3) (diameter 0) (color 0 0 0 0)
    (uuid 2d72fe9a-9e82-4e96-9d36-edb4740e9e80)
  )
  (junction (at 139.7 114.3) (diameter 0) (color 0 0 0 0)
    (uuid 2de67c57-f435-4be5-9eac-c6ac8e486ec6)
  )
  (junction (at 124.46 157.48) (diameter 0) (color 0 0 0 0)
    (uuid 3da58c53-74d1-4018-83ca-d5598e9993ed)
  )
  (junction (at 48.26 99.06) (diameter 0) (color 0 0 0 0)
    (uuid 419f8030-eb03-42b0-b420-af77d2701f5f)
  )
  (junction (at 48.26 185.42) (diameter 0) (color 0 0 0 0)
    (uuid 4fae2eb1-ac86-4f26-ac09-6949756329b8)
  )
  (junction (at 109.22 73.66) (diameter 0) (color 0 0 0 0)
    (uuid 5b1e76bd-529e-4734-b929-3f1a34b317e6)
  )
  (junction (at 170.18 58.42) (diameter 0) (color 0 0 0 0)
    (uuid 5d79b506-352d-4ed8-bc4c-f59d8f71a36e)
  )
  (junction (at 231.14 73.66) (diameter 0) (color 0 0 0 0)
    (uuid 5dee37da-baa1-40d4-b783-828b6b6210c8)
  )
  (junction (at 78.74 157.48) (diameter 0) (color 0 0 0 0)
    (uuid 5f1d8c0b-df1a-4b87-800b-0d2206d59c74)
  )
  (junction (at 200.66 73.66) (diameter 0) (color 0 0 0 0)
    (uuid 62752edc-78fd-4ba7-a192-9f28d4250b7d)
  )
  (junction (at 109.22 114.3) (diameter 0) (color 0 0 0 0)
    (uuid 652d6fc2-40a0-4434-94f8-6c8de06e58c1)
  )
  (junction (at 139.7 73.66) (diameter 0) (color 0 0 0 0)
    (uuid 7024efda-1edd-48ad-b363-16fba0279b6e)
  )
  (junction (at 271.78 73.66) (diameter 0) (color 0 0 0 0)
    (uuid 75786426-c65a-4c40-900b-509c37eccc5d)
  )
  (junction (at 78.74 73.66) (diameter 0) (color 0 0 0 0)
    (uuid 768ccb55-100d-4424-aba2-3dbef5082871)
  )
  (junction (at 93.98 157.48) (diameter 0) (color 0 0 0 0)
    (uuid 79369ba0-1676-41f5-99a3-0a45701b5b3e)
  )
  (junction (at 139.7 157.48) (diameter 0) (color 0 0 0 0)
    (uuid 7b4bf78b-8c32-4d8c-a20e-2f9de99794aa)
  )
  (junction (at 109.22 27.94) (diameter 0) (color 0 0 0 0)
    (uuid 90149c3d-0d2b-4f7d-9426-38fa885f5cd7)
  )
  (junction (at 48.26 58.42) (diameter 0) (color 0 0 0 0)
    (uuid 90331f9a-2b1e-44aa-abef-c38be79697d9)
  )
  (junction (at 170.18 27.94) (diameter 0) (color 0 0 0 0)
    (uuid 9191dea0-0978-4814-ad2d-1499bf9e407b)
  )
  (junction (at 63.5 157.48) (diameter 0) (color 0 0 0 0)
    (uuid 9553af4b-633e-4afa-b0be-110805fb765c)
  )
  (junction (at 259.08 73.66) (diameter 0) (color 0 0 0 0)
    (uuid 9ebdf6bc-f805-46f5-9bec-b1ab94b6c41b)
  )
  (junction (at 109.22 157.48) (diameter 0) (color 0 0 0 0)
    (uuid a5d7729e-c350-425d-bd48-43fff08d636e)
  )
  (junction (at 200.66 27.94) (diameter 0) (color 0 0 0 0)
    (uuid a76439b7-a951-4471-b1f3-cc95b27447f6)
  )
  (junction (at 271.78 114.3) (diameter 0) (color 0 0 0 0)
    (uuid a86866a4-93c6-4217-9f65-995b8febd889)
  )
  (junction (at 78.74 114.3) (diameter 0) (color 0 0 0 0)
    (uuid ac75ef3e-0b4e-4049-bf64-ab77eb70ed59)
  )
  (junction (at 139.7 27.94) (diameter 0) (color 0 0 0 0)
    (uuid ae41ce05-8c0f-482f-a815-9e21a10dfde0)
  )
  (junction (at 109.22 99.06) (diameter 0) (color 0 0 0 0)
    (uuid afbe20ff-69fa-4612-b102-818da048cdf2)
  )
  (junction (at 170.18 142.24) (diameter 0) (color 0 0 0 0)
    (uuid b8a828f0-daf8-4cf9-be19-046b1a8bc500)
  )
  (junction (at 25.4 142.24) (diameter 0) (color 0 0 0 0)
    (uuid bb981576-2dcb-423c-b921-5264a1616842)
  )
  (junction (at 154.94 157.48) (diameter 0) (color 0 0 0 0)
    (uuid bf83c892-edb1-48cc-b12c-a6586515fdad)
  )
  (junction (at 48.26 27.94) (diameter 0) (color 0 0 0 0)
    (uuid c24a4038-2023-4c6a-bef0-24ee938ac7f7)
  )
  (junction (at 109.22 142.24) (diameter 0) (color 0 0 0 0)
    (uuid c7c98614-1175-45d2-a62d-73fe31ab0b44)
  )
  (junction (at 231.14 27.94) (diameter 0) (color 0 0 0 0)
    (uuid ce64bdaa-61e4-4f7c-93e4-832ff1eae6b7)
  )
  (junction (at 109.22 58.42) (diameter 0) (color 0 0 0 0)
    (uuid d376684b-c98b-4996-a53e-16c44de4793c)
  )
  (junction (at 170.18 73.66) (diameter 0) (color 0 0 0 0)
    (uuid d9257231-33dd-4b34-aeea-1b30053d2c45)
  )
  (junction (at 78.74 27.94) (diameter 0) (color 0 0 0 0)
    (uuid e09c7843-691a-479b-8b63-0d64af5fbe5d)
  )
  (junction (at 48.26 142.24) (diameter 0) (color 0 0 0 0)
    (uuid e81a5d4e-8ac8-4b71-b291-686b917130e4)
  )
  (junction (at 259.08 27.94) (diameter 0) (color 0 0 0 0)
    (uuid fcf49e71-b1ed-44ab-a142-1da437802fb5)
  )

  (no_connect (at 147.32 172.72) (uuid b459053e-8473-4522-9cca-1897c373eb70))

  (wire (pts (xy 139.7 185.42) (xy 139.7 180.34))
    (stroke (width 0) (type default) (color 0 0 0 0))
    (uuid 0177ca17-a957-4f88-85c9-00e35ad37ed3)
  )
  (wire (pts (xy 109.22 185.42) (xy 109.22 180.34))
    (stroke (width 0) (type default) (color 0 0 0 0))
    (uuid 02870f5b-00dd-4a52-96df-af005b239b90)
  )
  (wire (pts (xy 109.22 96.52) (xy 109.22 99.06))
    (stroke (width 0) (type default) (color 0 0 0 0))
    (uuid 030cbda9-cc06-4fd6-93a7-44368d59b445)
  )
  (wire (pts (xy 139.7 157.48) (xy 124.46 157.48))
    (stroke (width 0) (type default) (color 0 0 0 0))
    (uuid 04f0a168-4cf6-4a6c-a70d-5ec40036218e)
  )
  (wire (pts (xy 48.26 185.42) (xy 78.74 185.42))
    (stroke (width 0) (type default) (color 0 0 0 0))
    (uuid 07ce982d-5b6a-45c9-9bf6-73553f35f904)
  )
  (wire (pts (xy 170.18 114.3) (xy 170.18 121.92))
    (stroke (width 0) (type default) (color 0 0 0 0))
    (uuid 0884eb26-d1b9-4091-8278-266e4df56544)
  )
  (wire (pts (xy 93.98 157.48) (xy 78.74 157.48))
    (stroke (width 0) (type default) (color 0 0 0 0))
    (uuid 08e4948e-d9a4-42d2-833d-57e4c3d0aae8)
  )
  (wire (pts (xy 48.26 99.06) (xy 109.22 99.06))
    (stroke (width 0) (type default) (color 0 0 0 0))
    (uuid 0961d268-d4b3-4b27-92b5-2d8df0d0162f)
  )
  (wire (pts (xy 177.8 88.9) (xy 223.52 88.9))
    (stroke (width 0) (type default) (color 0 0 0 0))
    (uuid 0ade03d0-d9f6-475f-b614-3f2483463abe)
  )
  (wire (pts (xy 170.18 114.3) (xy 139.7 114.3))
    (stroke (width 0) (type default) (color 0 0 0 0))
    (uuid 0e167ff2-df15-48d1-9f3e-53e55b2551b2)
  )
  (wire (pts (xy 35.56 48.26) (xy 40.64 48.26))
    (stroke (width 0) (type default) (color 0 0 0 0))
    (uuid 12f70487-d058-4020-81fb-c9afc67ad977)
  )
  (wire (pts (xy 231.14 99.06) (xy 231.14 96.52))
    (stroke (width 0) (type default) (color 0 0 0 0))
    (uuid 149c2a69-a39f-4687-b0f3-b5591aad6b33)
  )
  (wire (pts (xy 86.36 172.72) (xy 101.6 172.72))
    (stroke (width 0) (type default) (color 0 0 0 0))
    (uuid 159e617e-a6b6-4272-94de-d5a63d619862)
  )
  (wire (pts (xy 200.66 27.94) (xy 231.14 27.94))
    (stroke (width 0) (type default) (color 0 0 0 0))
    (uuid 1727f539-f67c-4374-9218-0175aa390e62)
  )
  (wire (pts (xy 200.66 114.3) (xy 170.18 114.3))
    (stroke (width 0) (type default) (color 0 0 0 0))
    (uuid 17524506-63ce-4ce6-8d0e-98e8859c2393)
  )
  (wire (pts (xy 55.88 172.72) (xy 71.12 172.72))
    (stroke (width 0) (type default) (color 0 0 0 0))
    (uuid 176f0a06-318c-4fd8-9f78-6366f24e8059)
  )
  (wire (pts (xy 238.76 48.26) (xy 248.92 48.26))
    (stroke (width 0) (type default) (color 0 0 0 0))
    (uuid 1895c2d7-905a-4c7a-8cdb-3db379881da8)
  )
  (wire (pts (xy 35.56 129.54) (xy 40.64 129.54))
    (stroke (width 0) (type default) (color 0 0 0 0))
    (uuid 19a20a19-9968-441d-80bd-5cd16bd5ab84)
  )
  (wire (pts (xy 109.22 73.66) (xy 109.22 81.28))
    (stroke (width 0) (type default) (color 0 0 0 0))
    (uuid 1be1bba4-4501-409e-b3e6-b221be131930)
  )
  (wire (pts (xy 170.18 27.94) (xy 200.66 27.94))
    (stroke (width 0) (type default) (color 0 0 0 0))
    (uuid 1e61e67f-1c4a-4dc0-a96d-9f0286816299)
  )
  (wire (pts (xy 200.66 73.66) (xy 231.14 73.66))
    (stroke (width 0) (type default) (color 0 0 0 0))
    (uuid 1f3900d0-7d8a-45f0-b52c-8a1cf7c18c8b)
  )
  (wire (pts (xy 78.74 157.48) (xy 63.5 157.48))
    (stroke (width 0) (type default) (color 0 0 0 0))
    (uuid 1f44f37b-5e41-45fd-ad52-ccd55e6609d8)
  )
  (wire (pts (xy 170.18 73.66) (xy 200.66 73.66))
    (stroke (width 0) (type default) (color 0 0 0 0))
    (uuid 2715c749-841f-4e35-8cc6-ebcba886d79c)
  )
  (wire (pts (xy 78.74 73.66) (xy 109.22 73.66))
    (stroke (width 0) (type default) (color 0 0 0 0))
    (uuid 2731ba6a-d4ee-47cd-95cd-16199b0813b1)
  )
  (wire (pts (xy 109.22 142.24) (xy 170.18 142.24))
    (stroke (width 0) (type default) (color 0 0 0 0))
    (uuid 2ccb28ae-1a5a-4991-a8ca-d3ea5eb0e2f6)
  )
  (wire (pts (xy 116.84 88.9) (xy 162.56 88.9))
    (stroke (width 0) (type default) (color 0 0 0 0))
    (uuid 2fcd7811-4bb0-4a10-8be2-f85c747b1c02)
  )
  (wire (pts (xy 109.22 27.94) (xy 139.7 27.94))
    (stroke (width 0) (type default) (color 0 0 0 0))
    (uuid 2fe8cc4f-e110-4fed-90ba-b6eee37b062e)
  )
  (wire (pts (xy 48.26 58.42) (xy 25.4 58.42))
    (stroke (width 0) (type default) (color 0 0 0 0))
    (uuid 32993d20-47f4-4a07-accf-72fc67f9cb2c)
  )
  (wire (pts (xy 154.94 157.48) (xy 139.7 157.48))
    (stroke (width 0) (type default) (color 0 0 0 0))
    (uuid 33e57830-9b18-4b6e-97e8-e45f72fe5fa2)
  )
  (wire (pts (xy 139.7 114.3) (xy 109.22 114.3))
    (stroke (width 0) (type default) (color 0 0 0 0))
    (uuid 35fe5dfb-93fb-4a5b-b0ae-99f1c903a562)
  )
  (wire (pts (xy 238.76 88.9) (xy 248.92 88.9))
    (stroke (width 0) (type default) (color 0 0 0 0))
    (uuid 386bcdcc-2e15-45d1-bcd9-c234bc417446)
  )
  (wire (pts (xy 116.84 129.54) (xy 162.56 129.54))
    (stroke (width 0) (type default) (color 0 0 0 0))
    (uuid 3e59bf47-5027-4228-97f5-adf4880ab34a)
  )
  (wire (pts (xy 78.74 157.48) (xy 78.74 165.1))
    (stroke (width 0) (type default) (color 0 0 0 0))
    (uuid 3efb8665-ab8d-4107-940b-ddac991e0086)
  )
  (wire (pts (xy 25.4 99.06) (xy 25.4 142.24))
    (stroke (width 0) (type default) (color 0 0 0 0))
    (uuid 47a5be55-b114-4dd9-9147-6a1509f5595d)
  )
  (wire (pts (xy 48.26 27.94) (xy 78.74 27.94))
    (stroke (width 0) (type default) (color 0 0 0 0))
    (uuid 48c04c06-fdd2-412e-b15d-e86dfc0e1ed7)
  )
  (wire (pts (xy 231.14 55.88) (xy 231.14 58.42))
    (stroke (width 0) (type default) (color 0 0 0 0))
    (uuid 4bd563f9-5f0b-4c0d-bc5f-4732ef41a7cf)
  )
  (wire (pts (xy 231.14 114.3) (xy 231.14 121.92))
    (stroke (width 0) (type default) (color 0 0 0 0))
    (uuid 4bd58b6c-5fd9-423c-8357-bda52bb22df9)
  )
  (wire (pts (xy 109.22 157.48) (xy 93.98 157.48))
    (stroke (width 0) (type default) (color 0 0 0 0))
    (uuid 4c008189-b535-426f-8fdd-5298adee61a3)
  )
  (wire (pts (xy 231.14 73.66) (xy 259.08 73.66))
    (stroke (width 0) (type default) (color 0 0 0 0))
    (uuid 4d004cc2-2242-497a-bba6-44fae231424b)
  )
  (wire (pts (xy 170.18 142.24) (xy 231.14 142.24))
    (stroke (width 0) (type default) (color 0 0 0 0))
    (uuid 53dde2b9-3018-4f51-a3f5-8248775f8e42)
  )
  (wire (pts (xy 248.92 88.9) (xy 248.92 106.68))
    (stroke (width 0) (type default) (color 0 0 0 0))
    (uuid 54eb06d0-8378-490a-afa6-25fd9d3cf247)
  )
  (wire (pts (xy 78.74 114.3) (xy 48.26 114.3))
    (stroke (width 0) (type default) (color 0 0 0 0))
    (uuid 592f6939-73e2-4bb4-b8e3-bc5ebe6116c9)
  )
  (wire (pts (xy 109.22 55.88) (xy 109.22 58.42))
    (stroke (width 0) (type default) (color 0 0 0 0))
    (uuid 5964d9fe-15aa-4b3f-afd4-2d15adf5bbeb)
  )
  (wire (pts (xy 25.4 142.24) (xy 48.26 142.24))
    (stroke (width 0) (type default) (color 0 0 0 0))
    (uuid 5dc1d765-13a1-48b7-a5f4-77581afeaa31)
  )
  (wire (pts (xy 170.18 27.94) (xy 170.18 40.64))
    (stroke (width 0) (type default) (color 0 0 0 0))
    (uuid 5e471e00-c221-4f16-a1ce-d713e7e029d9)
  )
  (wire (pts (xy 78.74 185.42) (xy 109.22 185.42))
    (stroke (width 0) (type default) (color 0 0 0 0))
    (uuid 5ef7c97d-efdf-4a0a-b63b-e77187f1ae9e)
  )
  (wire (pts (xy 35.56 88.9) (xy 40.64 88.9))
    (stroke (width 0) (type default) (color 0 0 0 0))
    (uuid 5fc3593e-b9e8-49bd-9166-3ed0c5e60597)
  )
  (wire (pts (xy 170.18 55.88) (xy 170.18 58.42))
    (stroke (width 0) (type default) (color 0 0 0 0))
    (uuid 612d9ca5-3250-48a6-b37d-da5447b96613)
  )
  (wire (pts (xy 48.26 58.42) (xy 109.22 58.42))
    (stroke (width 0) (type default) (color 0 0 0 0))
    (uuid 627ed03e-97e2-4e23-9c19-08bebf7ac4c7)
  )
  (wire (pts (xy 170.18 96.52) (xy 170.18 99.06))
    (stroke (width 0) (type default) (color 0 0 0 0))
    (uuid 658adc28-937c-4838-a9b6-5536511ae168)
  )
  (wire (pts (xy 48.26 185.42) (xy 48.26 180.34))
    (stroke (width 0) (type default) (color 0 0 0 0))
    (uuid 65a21baa-d015-40d5-8281-bfb10cf432bc)
  )
  (wire (pts (xy 48.26 96.52) (xy 48.26 99.06))
    (stroke (width 0) (type default) (color 0 0 0 0))
    (uuid 67125c5a-1838-4990-aef0-1488347b0f4b)
  )
  (wire (pts (xy 25.4 142.24) (xy 25.4 185.42))
    (stroke (width 0) (type default) (color 0 0 0 0))
    (uuid 680093be-43dc-48f7-9aaa-455b702494c1)
  )
  (wire (pts (xy 231.14 27.94) (xy 259.08 27.94))
    (stroke (width 0) (type default) (color 0 0 0 0))
    (uuid 6e04fb89-61d0-4a40-95b3-8b7efb404f18)
  )
  (wire (pts (xy 259.08 73.66) (xy 271.78 73.66))
    (stroke (width 0) (type default) (color 0 0 0 0))
    (uuid 6e25331c-5250-43fb-a9b5-bcbb1feaf896)
  )
  (wire (pts (xy 109.22 114.3) (xy 109.22 121.92))
    (stroke (width 0) (type default) (color 0 0 0 0))
    (uuid 6f7ae9f3-5518-416d-b403-39d72918d481)
  )
  (wire (pts (xy 271.78 114.3) (xy 271.78 157.48))
    (stroke (width 0) (type default) (color 0 0 0 0))
    (uuid 6fd57633-276b-40d1-8a69-eab1af1d7a3d)
  )
  (wire (pts (xy 248.92 48.26) (xy 248.92 66.04))
    (stroke (width 0) (type default) (color 0 0 0 0))
    (uuid 717a3293-6d77-4692-b598-318ac4f3667b)
  )
  (wire (pts (xy 139.7 73.66) (xy 170.18 73.66))
    (stroke (width 0) (type default) (color 0 0 0 0))
    (uuid 717b9f53-da1c-4010-b7ee-ffb6411f27ad)
  )
  (wire (pts (xy 116.84 172.72) (xy 132.08 172.72))
    (stroke (width 0) (type default) (color 0 0 0 0))
    (uuid 760b3083-b290-4629-80ad-6e61217a6075)
  )
  (wire (pts (xy 271.78 114.3) (xy 259.08 114.3))
    (stroke (width 0) (type default) (color 0 0 0 0))
    (uuid 7b32474c-82fd-4bfb-9c09-d09866600770)
  )
  (wire (pts (xy 109.22 73.66) (xy 139.7 73.66))
    (stroke (width 0) (type default) (color 0 0 0 0))
    (uuid 7c455fba-e78c-46b3-a0b7-9c8ac7f994b3)
  )
  (wire (pts (xy 231.14 27.94) (xy 231.14 40.64))
    (stroke (width 0) (type default) (color 0 0 0 0))
    (uuid 7e0d89d9-9649-4a9a-8a36-c0ae5c012aae)
  )
  (wire (pts (xy 248.92 106.68) (xy 35.56 106.68))
    (stroke (width 0) (type default) (color 0 0 0 0))
    (uuid 80fed078-281c-471e-9856-79c4551c0134)
  )
  (wire (pts (xy 48.26 55.88) (xy 48.26 58.42))
    (stroke (width 0) (type default) (color 0 0 0 0))
    (uuid 82066a07-8115-4b81-91ed-7dcaa077e004)
  )
  (wire (pts (xy 259.08 27.94) (xy 271.78 27.94))
    (stroke (width 0) (type default) (color 0 0 0 0))
    (uuid 82ae5040-42bb-45a8-baff-33e9c253a741)
  )
  (wire (pts (xy 109.22 27.94) (xy 109.22 40.64))
    (stroke (width 0) (type default) (color 0 0 0 0))
    (uuid 839bc0b1-0bdf-4487-8c71-232196f40876)
  )
  (wire (pts (xy 248.92 129.54) (xy 248.92 149.86))
    (stroke (width 0) (type default) (color 0 0 0 0))
    (uuid 90b5e61c-d91b-40cb-8dd8-86da12f1b598)
  )
  (wire (pts (xy 177.8 48.26) (xy 223.52 48.26))
    (stroke (width 0) (type default) (color 0 0 0 0))
    (uuid 910f1000-6c46-47b2-b009-c062ad3faac6)
  )
  (wire (pts (xy 78.74 185.42) (xy 78.74 180.34))
    (stroke (width 0) (type default) (color 0 0 0 0))
    (uuid 9238f278-e076-49d9-bce4-e6f17a8f646e)
  )
  (wire (pts (xy 35.56 106.68) (xy 35.56 129.54))
    (stroke (width 0) (type default) (color 0 0 0 0))
    (uuid 93f9cd2a-9409-4c81-b655-66088ec387fd)
  )
  (wire (pts (xy 231.14 142.24) (xy 231.14 137.16))
    (stroke (width 0) (type default) (color 0 0 0 0))
    (uuid 96eeeec3-05a6-487c-8903-2a6857961dfc)
  )
  (wire (pts (xy 25.4 58.42) (xy 25.4 99.06))
    (stroke (width 0) (type default) (color 0 0 0 0))
    (uuid 9bf83aa5-a0cb-4584-b167-c1c9d0b11c9f)
  )
  (wire (pts (xy 35.56 172.72) (xy 40.64 172.72))
    (stroke (width 0) (type default) (color 0 0 0 0))
    (uuid 9cae7010-4e6d-4495-91e9-491e728e6711)
  )
  (wire (pts (xy 25.4 99.06) (xy 48.26 99.06))
    (stroke (width 0) (type default) (color 0 0 0 0))
    (uuid 9d61f02a-4b32-41c0-84e3-e1ca4a907aed)
  )
  (wire (pts (xy 63.5 157.48) (xy 48.26 157.48))
    (stroke (width 0) (type default) (color 0 0 0 0))
    (uuid 9e945c9e-faca-45c0-bd09-997451924b73)
  )
  (wire (pts (xy 48.26 142.24) (xy 109.22 142.24))
    (stroke (width 0) (type default) (color 0 0 0 0))
    (uuid 9ed0ea05-508e-49e9-9fbe-cf348e9b04b6)
  )
  (wire (pts (xy 48.26 114.3) (xy 48.26 121.92))
    (stroke (width 0) (type default) (color 0 0 0 0))
    (uuid 9fe498c1-303b-4113-9412-51c5e53f488a)
  )
  (wire (pts (xy 170.18 58.42) (xy 231.14 58.42))
    (stroke (width 0) (type default) (color 0 0 0 0))
    (uuid a9138ed9-1c9d-4641-95c1-e54da9254f28)
  )
  (wire (pts (xy 109.22 142.24) (xy 109.22 137.16))
    (stroke (width 0) (type default) (color 0 0 0 0))
    (uuid a9933b8a-ad8c-44f1-a50e-83ac46fb5073)
  )
  (wire (pts (xy 48.26 142.24) (xy 48.26 137.16))
    (stroke (width 0) (type default) (color 0 0 0 0))
    (uuid a9ab39b5-c4ae-494b-b854-22a00fb525bc)
  )
  (wire (pts (xy 170.18 73.66) (xy 170.18 81.28))
    (stroke (width 0) (type default) (color 0 0 0 0))
    (uuid a9f2eb30-a576-48e5-bbc7-45585ce59393)
  )
  (wire (pts (xy 271.78 157.48) (xy 154.94 157.48))
    (stroke (width 0) (type default) (color 0 0 0 0))
    (uuid aa00fdab-7829-498e-84c8-fc445c57a0ed)
  )
  (wire (pts (xy 124.46 157.48) (xy 109.22 157.48))
    (stroke (width 0) (type default) (color 0 0 0 0))
    (uuid aaad4db8-4c53-46ab-bd2e-60d5aab47b2b)
  )
  (wire (pts (xy 48.26 40.64) (xy 48.26 27.94))
    (stroke (width 0) (type default) (color 0 0 0 0))
    (uuid abb398cf-f768-428e-a052-f1a5000d62fb)
  )
  (wire (pts (xy 238.76 129.54) (xy 248.92 129.54))
    (stroke (width 0) (type default) (color 0 0 0 0))
    (uuid abcaa4ef-e1b1-461d-8740-4c7a7a700aeb)
  )
  (wire (pts (xy 109.22 58.42) (xy 170.18 58.42))
    (stroke (width 0) (type default) (color 0 0 0 0))
    (uuid b25b47e0-ebbd-4072-b243-b830705e678c)
  )
  (wire (pts (xy 35.56 149.86) (xy 248.92 149.86))
    (stroke (width 0) (type default) (color 0 0 0 0))
    (uuid b2636b0b-050e-4b4b-9738-495172daac1f)
  )
  (wire (pts (xy 27.94 27.94) (xy 48.26 27.94))
    (stroke (width 0) (type default) (color 0 0 0 0))
    (uuid b2c13335-6586-4d06-aee9-88fb85c4d414)
  )
  (wire (pts (xy 25.4 185.42) (xy 48.26 185.42))
    (stroke (width 0) (type default) (color 0 0 0 0))
    (uuid b4e3492c-d79e-44dd-98e8-331ebe6e75c4)
  )
  (wire (pts (xy 48.26 157.48) (xy 48.26 165.1))
    (stroke (width 0) (type default) (color 0 0 0 0))
    (uuid b6f99f0f-f7a1-4278-b88c-c8617f01d002)
  )
  (wire (pts (xy 116.84 48.26) (xy 162.56 48.26))
    (stroke (width 0) (type default) (color 0 0 0 0))
    (uuid b75ac5a8-8a0b-4393-9b37-d079ec977d6c)
  )
  (wire (pts (xy 48.26 81.28) (xy 48.26 73.66))
    (stroke (width 0) (type default) (color 0 0 0 0))
    (uuid b79f3646-42bf-4e1b-8d68-81901d398c74)
  )
  (wire (pts (xy 139.7 27.94) (xy 170.18 27.94))
    (stroke (width 0) (type default) (color 0 0 0 0))
    (uuid ba8f7aeb-24ae-4944-a7c4-b93b6a47c58d)
  )
  (wire (pts (xy 177.8 129.54) (xy 223.52 129.54))
    (stroke (width 0) (type default) (color 0 0 0 0))
    (uuid bede0a56-1225-45da-af47-650b597f96f4)
  )
  (wire (pts (xy 55.88 88.9) (xy 101.6 88.9))
    (stroke (width 0) (type default) (color 0 0 0 0))
    (uuid c4f3ea32-2faa-432d-832b-208aa35245a3)
  )
  (wire (pts (xy 231.14 114.3) (xy 200.66 114.3))
    (stroke (width 0) (type default) (color 0 0 0 0))
    (uuid c69b4034-24cc-4665-8a15-0333af563d9b)
  )
  (wire (pts (xy 55.88 48.26) (xy 101.6 48.26))
    (stroke (width 0) (type default) (color 0 0 0 0))
    (uuid c9d8758e-cd4d-4550-a914-f2427a5bf352)
  )
  (wire (pts (xy 271.78 73.66) (xy 271.78 114.3))
    (stroke (width 0) (type default) (color 0 0 0 0))
    (uuid d7fc3b92-5091-4790-80ca-9b645dfb27e8)
  )
  (wire (pts (xy 248.92 66.04) (xy 35.56 66.04))
    (stroke (width 0) (type default) (color 0 0 0 0))
    (uuid d94016b0-889b-45ee-b76e-84ba32869a6c)
  )
  (wire (pts (xy 170.18 142.24) (xy 170.18 137.16))
    (stroke (width 0) (type default) (color 0 0 0 0))
    (uuid d9b31200-d79f-44da-ad49-c8650b1cb2d6)
  )
  (wire (pts (xy 109.22 185.42) (xy 139.7 185.42))
    (stroke (width 0) (type default) (color 0 0 0 0))
    (uuid dc965d0e-6a84-445f-9984-a816d9c98c7b)
  )
  (wire (pts (xy 231.14 73.66) (xy 231.14 81.28))
    (stroke (width 0) (type default) (color 0 0 0 0))
    (uuid e18c909b-a410-4f1c-8f8a-13709d355c82)
  )
  (wire (pts (xy 109.22 114.3) (xy 78.74 114.3))
    (stroke (width 0) (type default) (color 0 0 0 0))
    (uuid e388e152-6b85-4d3e-a814-890aff6b619f)
  )
  (wire (pts (xy 35.56 149.86) (xy 35.56 172.72))
    (stroke (width 0) (type default) (color 0 0 0 0))
    (uuid e8fd5bf6-8603-413e-b878-97c1e8ff2c02)
  )
  (wire (pts (xy 109.22 99.06) (xy 170.18 99.06))
    (stroke (width 0) (type default) (color 0 0 0 0))
    (uuid e9168f7c-42a7-49ec-8664-aa37b4c3cec8)
  )
  (wire (pts (xy 170.18 99.06) (xy 231.14 99.06))
    (stroke (width 0) (type default) (color 0 0 0 0))
    (uuid eddd7da8-0b35-4a08-bf17-48f64d040bd8)
  )
  (wire (pts (xy 35.56 66.04) (xy 35.56 88.9))
    (stroke (width 0) (type default) (color 0 0 0 0))
    (uuid ee33751a-fe12-42dd-83d8-ebccc422dd29)
  )
  (wire (pts (xy 139.7 157.48) (xy 139.7 165.1))
    (stroke (width 0) (type default) (color 0 0 0 0))
    (uuid f45455f3-1402-4823-9611-cfe2a47af47e)
  )
  (wire (pts (xy 259.08 114.3) (xy 231.14 114.3))
    (stroke (width 0) (type default) (color 0 0 0 0))
    (uuid f9595da3-b8ff-4205-b572-15441fd61f31)
  )
  (wire (pts (xy 78.74 27.94) (xy 109.22 27.94))
    (stroke (width 0) (type default) (color 0 0 0 0))
    (uuid fa98df9d-b3c7-4f28-a080-fff10ed386fe)
  )
  (wire (pts (xy 48.26 73.66) (xy 78.74 73.66))
    (stroke (width 0) (type default) (color 0 0 0 0))
    (uuid fda1ad6b-8da9-4e41-8fa8-0f43aab8230a)
  )
  (wire (pts (xy 55.88 129.54) (xy 101.6 129.54))
    (stroke (width 0) (type default) (color 0 0 0 0))
    (uuid fdf7a12d-4e5f-4818-a788-02edb23b29ce)
  )
  (wire (pts (xy 271.78 27.94) (xy 271.78 73.66))
    (stroke (width 0) (type default) (color 0 0 0 0))
    (uuid fe78eb78-7ddd-4e5f-a80e-d3a28f7da10c)
  )
  (wire (pts (xy 109.22 157.48) (xy 109.22 165.1))
    (stroke (width 0) (type default) (color 0 0 0 0))
    (uuid fec5cc4b-d5c7-4252-a90f-931d8f6748a3)
  )

  (global_label "RGB_DAT" (shape input) (at 35.56 48.26 180) (fields_autoplaced)
    (effects (font (size 1.27 1.27)) (justify right))
    (uuid 44bb2f18-3d81-4c4d-b413-81fb1c85eafe)
    (property "Intersheet References" "${INTERSHEET_REFS}" (id 0) (at 25.0431 48.1806 0)
      (effects (font (size 1.27 1.27)) (justify right) hide)
    )
  )

  (symbol (lib_id "LED:WS2812B") (at 231.14 129.54 0) (unit 1)
    (in_bom yes) (on_board yes) (fields_autoplaced)
    (uuid 079c0f14-ef71-4e76-8afd-a115b57f6bc0)
    (property "Reference" "D12" (id 0) (at 242.57 125.2093 0))
    (property "Value" "WS2812B" (id 1) (at 242.57 127.7493 0))
    (property "Footprint" "LED_SMD:LED_WS2812B_PLCC4_5.0x5.0mm_P3.2mm" (id 2) (at 232.41 137.16 0)
      (effects (font (size 1.27 1.27)) (justify left top) hide)
    )
    (property "Datasheet" "https://cdn-shop.adafruit.com/datasheets/WS2812B.pdf" (id 3) (at 233.68 139.065 0)
      (effects (font (size 1.27 1.27)) (justify left top) hide)
    )
    (pin "1" (uuid 8f994a63-5979-4697-8788-8880d7fb143c))
    (pin "2" (uuid b6f6174a-21cc-491d-bfea-c42d97e6e16f))
    (pin "3" (uuid 2316473e-23ff-43a4-99a1-ad7f993a57c8))
    (pin "4" (uuid 43b4b2f6-21b2-415c-a57a-b272593b4666))
  )

  (symbol (lib_id "Device:C") (at 78.74 77.47 0) (unit 1)
    (in_bom yes) (on_board yes) (fields_autoplaced)
    (uuid 16b11c07-ee71-41d1-97b0-a2ea7be6e7b6)
    (property "Reference" "C19" (id 0) (at 82.55 76.1999 0)
      (effects (font (size 1.27 1.27)) (justify left))
    )
    (property "Value" "0,1uF" (id 1) (at 82.55 78.7399 0)
      (effects (font (size 1.27 1.27)) (justify left))
    )
    (property "Footprint" "Capacitor_SMD:C_0805_2012Metric" (id 2) (at 79.7052 81.28 0)
      (effects (font (size 1.27 1.27)) hide)
    )
    (property "Datasheet" "~" (id 3) (at 78.74 77.47 0)
      (effects (font (size 1.27 1.27)) hide)
    )
    (pin "1" (uuid e9b10680-d02d-418a-a66f-31076c79be10))
    (pin "2" (uuid 55a0d1da-2c6a-4997-abd8-15f0724fe33b))
  )

  (symbol (lib_id "LED:WS2812B") (at 109.22 129.54 0) (unit 1)
    (in_bom yes) (on_board yes) (fields_autoplaced)
    (uuid 1ccd07af-d13a-4630-ad8f-5244ecaae5d5)
    (property "Reference" "D10" (id 0) (at 120.65 125.2093 0))
    (property "Value" "WS2812B" (id 1) (at 120.65 127.7493 0))
    (property "Footprint" "LED_SMD:LED_WS2812B_PLCC4_5.0x5.0mm_P3.2mm" (id 2) (at 110.49 137.16 0)
      (effects (font (size 1.27 1.27)) (justify left top) hide)
    )
    (property "Datasheet" "https://cdn-shop.adafruit.com/datasheets/WS2812B.pdf" (id 3) (at 111.76 139.065 0)
      (effects (font (size 1.27 1.27)) (justify left top) hide)
    )
    (pin "1" (uuid 06aa2d9f-6e00-4283-a7d4-f1ab9c5f501e))
    (pin "2" (uuid d3c1261b-6036-41d7-b48a-f70da20b76d9))
    (pin "3" (uuid ef1e1887-37da-477d-a6c7-978cf931aa6f))
    (pin "4" (uuid de4f692d-4dfc-4a17-8571-883add49e290))
  )

  (symbol (lib_id "power:GND") (at 154.94 165.1 0) (unit 1)
    (in_bom yes) (on_board yes) (fields_autoplaced)
    (uuid 208a472d-0329-4a08-a95e-dafcefde1413)
    (property "Reference" "#PWR027" (id 0) (at 154.94 171.45 0)
      (effects (font (size 1.27 1.27)) hide)
    )
    (property "Value" "GND" (id 1) (at 154.94 170.18 0))
    (property "Footprint" "" (id 2) (at 154.94 165.1 0)
      (effects (font (size 1.27 1.27)) hide)
    )
    (property "Datasheet" "" (id 3) (at 154.94 165.1 0)
      (effects (font (size 1.27 1.27)) hide)
    )
    (pin "1" (uuid 2ad22557-d4c9-40ba-b573-32f8b66dfb95))
  )

  (symbol (lib_id "power:GND") (at 93.98 165.1 0) (unit 1)
    (in_bom yes) (on_board yes) (fields_autoplaced)
    (uuid 21661a13-d499-430b-b544-d8fd64c42ecb)
    (property "Reference" "#PWR022" (id 0) (at 93.98 171.45 0)
      (effects (font (size 1.27 1.27)) hide)
    )
    (property "Value" "GND" (id 1) (at 93.98 170.18 0))
    (property "Footprint" "" (id 2) (at 93.98 165.1 0)
      (effects (font (size 1.27 1.27)) hide)
    )
    (property "Datasheet" "" (id 3) (at 93.98 165.1 0)
      (effects (font (size 1.27 1.27)) hide)
    )
    (pin "1" (uuid f7bca742-f403-4677-852f-6d3fbc4607c1))
  )

  (symbol (lib_id "power:GND") (at 25.4 185.42 0) (unit 1)
    (in_bom yes) (on_board yes) (fields_autoplaced)
    (uuid 2222c6e1-1a54-48af-b6b8-b4ddfc444557)
    (property "Reference" "#PWR016" (id 0) (at 25.4 191.77 0)
      (effects (font (size 1.27 1.27)) hide)
    )
    (property "Value" "GND" (id 1) (at 25.4 190.5 0))
    (property "Footprint" "" (id 2) (at 25.4 185.42 0)
      (effects (font (size 1.27 1.27)) hide)
    )
    (property "Datasheet" "" (id 3) (at 25.4 185.42 0)
      (effects (font (size 1.27 1.27)) hide)
    )
    (pin "1" (uuid ec453724-b594-4f37-8af6-8c058f0165ca))
  )

  (symbol (lib_id "Device:C") (at 78.74 118.11 0) (unit 1)
    (in_bom yes) (on_board yes) (fields_autoplaced)
    (uuid 22845a61-3701-4be2-a628-3e70dd387b44)
    (property "Reference" "C23" (id 0) (at 82.55 116.8399 0)
      (effects (font (size 1.27 1.27)) (justify left))
    )
    (property "Value" "0,1uF" (id 1) (at 82.55 119.3799 0)
      (effects (font (size 1.27 1.27)) (justify left))
    )
    (property "Footprint" "Capacitor_SMD:C_0805_2012Metric" (id 2) (at 79.7052 121.92 0)
      (effects (font (size 1.27 1.27)) hide)
    )
    (property "Datasheet" "~" (id 3) (at 78.74 118.11 0)
      (effects (font (size 1.27 1.27)) hide)
    )
    (pin "1" (uuid 604a4893-96b8-45e3-b2f6-fc736560890d))
    (pin "2" (uuid 4dc31d38-bb4b-4367-8100-2d1f189e3048))
  )

  (symbol (lib_id "power:GND") (at 139.7 121.92 0) (unit 1)
    (in_bom yes) (on_board yes) (fields_autoplaced)
    (uuid 27a77909-d422-4ac2-9e5c-958e02e7b254)
    (property "Reference" "#PWR026" (id 0) (at 139.7 128.27 0)
      (effects (font (size 1.27 1.27)) hide)
    )
    (property "Value" "GND" (id 1) (at 139.7 127 0))
    (property "Footprint" "" (id 2) (at 139.7 121.92 0)
      (effects (font (size 1.27 1.27)) hide)
    )
    (property "Datasheet" "" (id 3) (at 139.7 121.92 0)
      (effects (font (size 1.27 1.27)) hide)
    )
    (pin "1" (uuid 498c2eba-1be5-495a-828f-438fcc3bca79))
  )

  (symbol (lib_id "LED:WS2812B") (at 109.22 172.72 0) (unit 1)
    (in_bom yes) (on_board yes)
    (uuid 3032df23-ac19-457b-bb8a-9671db500aea)
    (property "Reference" "D15" (id 0) (at 99.06 174.625 0))
    (property "Value" "WS2812B" (id 1) (at 99.06 177.165 0))
    (property "Footprint" "LED_SMD:LED_WS2812B_PLCC4_5.0x5.0mm_P3.2mm" (id 2) (at 110.49 180.34 0)
      (effects (font (size 1.27 1.27)) (justify left top) hide)
    )
    (property "Datasheet" "https://cdn-shop.adafruit.com/datasheets/WS2812B.pdf" (id 3) (at 111.76 182.245 0)
      (effects (font (size 1.27 1.27)) (justify left top) hide)
    )
    (pin "1" (uuid a60cad24-5d7a-4605-8ee7-c8bc857f0bf3))
    (pin "2" (uuid 5337b05d-f340-4597-9bee-253393aeb929))
    (pin "3" (uuid 05fe445b-48c3-470e-bea4-ecdb1d87ac1a))
    (pin "4" (uuid b7efde0b-779c-44e8-8352-f6b887153b57))
  )

  (symbol (lib_id "Device:C") (at 259.08 31.75 0) (unit 1)
    (in_bom yes) (on_board yes) (fields_autoplaced)
    (uuid 315348d7-dc78-4792-b8fb-01b178ededfa)
    (property "Reference" "C18" (id 0) (at 262.89 30.4799 0)
      (effects (font (size 1.27 1.27)) (justify left))
    )
    (property "Value" "0,1uF" (id 1) (at 262.89 33.0199 0)
      (effects (font (size 1.27 1.27)) (justify left))
    )
    (property "Footprint" "Capacitor_SMD:C_0805_2012Metric" (id 2) (at 260.0452 35.56 0)
      (effects (font (size 1.27 1.27)) hide)
    )
    (property "Datasheet" "~" (id 3) (at 259.08 31.75 0)
      (effects (font (size 1.27 1.27)) hide)
    )
    (pin "1" (uuid 2eb05e7c-f810-43e8-86f8-82279882d4a8))
    (pin "2" (uuid 1559fcdf-2609-4899-b549-fce5da783422))
  )

  (symbol (lib_id "Device:C") (at 200.66 31.75 0) (unit 1)
    (in_bom yes) (on_board yes) (fields_autoplaced)
    (uuid 3e4e118c-1d27-4e25-84d0-e15bca3119a1)
    (property "Reference" "C17" (id 0) (at 204.47 30.4799 0)
      (effects (font (size 1.27 1.27)) (justify left))
    )
    (property "Value" "0,1uF" (id 1) (at 204.47 33.0199 0)
      (effects (font (size 1.27 1.27)) (justify left))
    )
    (property "Footprint" "Capacitor_SMD:C_0805_2012Metric" (id 2) (at 201.6252 35.56 0)
      (effects (font (size 1.27 1.27)) hide)
    )
    (property "Datasheet" "~" (id 3) (at 200.66 31.75 0)
      (effects (font (size 1.27 1.27)) hide)
    )
    (pin "1" (uuid 6179b87d-3f03-4843-b74a-f7ad9e0fdec4))
    (pin "2" (uuid 480aae5e-5367-42b0-86d7-3738a8278d62))
  )

  (symbol (lib_id "Device:C") (at 124.46 161.29 0) (unit 1)
    (in_bom yes) (on_board yes) (fields_autoplaced)
    (uuid 3fa53404-626a-450f-8f27-b8d0355ab41c)
    (property "Reference" "C29" (id 0) (at 128.27 160.0199 0)
      (effects (font (size 1.27 1.27)) (justify left))
    )
    (property "Value" "0,1uF" (id 1) (at 128.27 162.5599 0)
      (effects (font (size 1.27 1.27)) (justify left))
    )
    (property "Footprint" "Capacitor_SMD:C_0805_2012Metric" (id 2) (at 125.4252 165.1 0)
      (effects (font (size 1.27 1.27)) hide)
    )
    (property "Datasheet" "~" (id 3) (at 124.46 161.29 0)
      (effects (font (size 1.27 1.27)) hide)
    )
    (pin "1" (uuid 3fd4e6ca-18b6-43a2-a920-e18b87db687c))
    (pin "2" (uuid 97a662b3-16a1-4efa-930a-ff1520417360))
  )

  (symbol (lib_id "power:GND") (at 78.74 35.56 0) (unit 1)
    (in_bom yes) (on_board yes) (fields_autoplaced)
    (uuid 42fc3d7e-5374-4814-a182-1b1b4a00ad98)
    (property "Reference" "#PWR019" (id 0) (at 78.74 41.91 0)
      (effects (font (size 1.27 1.27)) hide)
    )
    (property "Value" "GND" (id 1) (at 78.74 40.64 0))
    (property "Footprint" "" (id 2) (at 78.74 35.56 0)
      (effects (font (size 1.27 1.27)) hide)
    )
    (property "Datasheet" "" (id 3) (at 78.74 35.56 0)
      (effects (font (size 1.27 1.27)) hide)
    )
    (pin "1" (uuid 807a8a11-754e-4922-bfda-306313e649b7))
  )

  (symbol (lib_id "power:GND") (at 139.7 81.28 0) (unit 1)
    (in_bom yes) (on_board yes) (fields_autoplaced)
    (uuid 45ac3ce4-3313-4127-9d8e-e013b2555d1d)
    (property "Reference" "#PWR025" (id 0) (at 139.7 87.63 0)
      (effects (font (size 1.27 1.27)) hide)
    )
    (property "Value" "GND" (id 1) (at 139.7 86.36 0))
    (property "Footprint" "" (id 2) (at 139.7 81.28 0)
      (effects (font (size 1.27 1.27)) hide)
    )
    (property "Datasheet" "" (id 3) (at 139.7 81.28 0)
      (effects (font (size 1.27 1.27)) hide)
    )
    (pin "1" (uuid 663aaf16-8a85-4826-9af8-e8a40666d0ad))
  )

  (symbol (lib_id "power:GND") (at 259.08 121.92 0) (unit 1)
    (in_bom yes) (on_board yes) (fields_autoplaced)
    (uuid 52434039-0df2-4768-8b5b-e72637941f7a)
    (property "Reference" "#PWR033" (id 0) (at 259.08 128.27 0)
      (effects (font (size 1.27 1.27)) hide)
    )
    (property "Value" "GND" (id 1) (at 259.08 127 0))
    (property "Footprint" "" (id 2) (at 259.08 121.92 0)
      (effects (font (size 1.27 1.27)) hide)
    )
    (property "Datasheet" "" (id 3) (at 259.08 121.92 0)
      (effects (font (size 1.27 1.27)) hide)
    )
    (pin "1" (uuid a9aae711-7271-476c-b170-fc9a7b9b9f54))
  )

  (symbol (lib_id "Device:C") (at 139.7 31.75 0) (unit 1)
    (in_bom yes) (on_board yes) (fields_autoplaced)
    (uuid 5b4d0a67-ed30-4509-81db-40df2bb45754)
    (property "Reference" "C16" (id 0) (at 143.51 30.4799 0)
      (effects (font (size 1.27 1.27)) (justify left))
    )
    (property "Value" "0,1uF" (id 1) (at 143.51 33.0199 0)
      (effects (font (size 1.27 1.27)) (justify left))
    )
    (property "Footprint" "Capacitor_SMD:C_0805_2012Metric" (id 2) (at 140.6652 35.56 0)
      (effects (font (size 1.27 1.27)) hide)
    )
    (property "Datasheet" "~" (id 3) (at 139.7 31.75 0)
      (effects (font (size 1.27 1.27)) hide)
    )
    (pin "1" (uuid 2635069d-576c-4efa-89ea-086fd2424da3))
    (pin "2" (uuid cdd4d1ad-11bd-4c14-a962-b4efd2be72c7))
  )

  (symbol (lib_id "Device:C") (at 93.98 161.29 0) (unit 1)
    (in_bom yes) (on_board yes) (fields_autoplaced)
    (uuid 61a9a697-9d88-4e1d-8bad-1fdbfcea9a33)
    (property "Reference" "C28" (id 0) (at 97.79 160.0199 0)
      (effects (font (size 1.27 1.27)) (justify left))
    )
    (property "Value" "0,1uF" (id 1) (at 97.79 162.5599 0)
      (effects (font (size 1.27 1.27)) (justify left))
    )
    (property "Footprint" "Capacitor_SMD:C_0805_2012Metric" (id 2) (at 94.9452 165.1 0)
      (effects (font (size 1.27 1.27)) hide)
    )
    (property "Datasheet" "~" (id 3) (at 93.98 161.29 0)
      (effects (font (size 1.27 1.27)) hide)
    )
    (pin "1" (uuid 812a3a20-5025-4711-acd1-5b2b4b93d4f6))
    (pin "2" (uuid 5a93c853-82fa-4581-a01e-f4b3ea6d3b70))
  )

  (symbol (lib_id "LED:WS2812B") (at 170.18 129.54 0) (unit 1)
    (in_bom yes) (on_board yes) (fields_autoplaced)
    (uuid 64cb01c0-ead3-4056-aa36-618fc478e38e)
    (property "Reference" "D11" (id 0) (at 181.61 125.2093 0))
    (property "Value" "WS2812B" (id 1) (at 181.61 127.7493 0))
    (property "Footprint" "LED_SMD:LED_WS2812B_PLCC4_5.0x5.0mm_P3.2mm" (id 2) (at 171.45 137.16 0)
      (effects (font (size 1.27 1.27)) (justify left top) hide)
    )
    (property "Datasheet" "https://cdn-shop.adafruit.com/datasheets/WS2812B.pdf" (id 3) (at 172.72 139.065 0)
      (effects (font (size 1.27 1.27)) (justify left top) hide)
    )
    (pin "1" (uuid 6e3839a5-2b40-4f1a-b2da-1efdd99de65c))
    (pin "2" (uuid 046f0e02-2fb9-4e4d-922c-a3b9b9f87d7e))
    (pin "3" (uuid 92321285-141f-48e9-a372-9cc5173abf6d))
    (pin "4" (uuid 39a26a78-8547-46f2-a5ba-4003e44b000d))
  )

  (symbol (lib_id "LED:WS2812B") (at 231.14 48.26 0) (unit 1)
    (in_bom yes) (on_board yes) (fields_autoplaced)
    (uuid 75ceeb26-18a5-4360-b8ae-63937e72f4fd)
    (property "Reference" "D4" (id 0) (at 242.57 43.9293 0))
    (property "Value" "WS2812B" (id 1) (at 242.57 46.4693 0))
    (property "Footprint" "LED_SMD:LED_WS2812B_PLCC4_5.0x5.0mm_P3.2mm" (id 2) (at 232.41 55.88 0)
      (effects (font (size 1.27 1.27)) (justify left top) hide)
    )
    (property "Datasheet" "https://cdn-shop.adafruit.com/datasheets/WS2812B.pdf" (id 3) (at 233.68 57.785 0)
      (effects (font (size 1.27 1.27)) (justify left top) hide)
    )
    (pin "1" (uuid 01867a58-87f0-44a1-ae23-61f079912921))
    (pin "2" (uuid a9d73522-44b3-4e2b-98ca-f251c7f36d44))
    (pin "3" (uuid c98c96fa-1783-4e05-a077-7d22d8ec31e7))
    (pin "4" (uuid a3b34998-2d4f-4afa-8d10-88a4d434762f))
  )

  (symbol (lib_id "LED:WS2812B") (at 109.22 48.26 0) (unit 1)
    (in_bom yes) (on_board yes) (fields_autoplaced)
    (uuid 7656570e-867b-4b6d-b70f-eb88d30e6ee0)
    (property "Reference" "D2" (id 0) (at 120.65 43.9293 0))
    (property "Value" "WS2812B" (id 1) (at 120.65 46.4693 0))
    (property "Footprint" "LED_SMD:LED_WS2812B_PLCC4_5.0x5.0mm_P3.2mm" (id 2) (at 110.49 55.88 0)
      (effects (font (size 1.27 1.27)) (justify left top) hide)
    )
    (property "Datasheet" "https://cdn-shop.adafruit.com/datasheets/WS2812B.pdf" (id 3) (at 111.76 57.785 0)
      (effects (font (size 1.27 1.27)) (justify left top) hide)
    )
    (pin "1" (uuid d0a00acd-e3b5-4720-bd64-e904539067b3))
    (pin "2" (uuid 8171fca6-efb9-45c5-b0e7-4a15e93d354a))
    (pin "3" (uuid 59d4e593-92a8-4646-9d03-2c8c6507900f))
    (pin "4" (uuid de2a9e73-e6fc-4167-9c6b-916dc9d0a598))
  )

  (symbol (lib_id "LED:WS2812B") (at 48.26 129.54 0) (unit 1)
    (in_bom yes) (on_board yes) (fields_autoplaced)
    (uuid 7ff684fb-0f57-4268-90ca-eb7a837149a2)
    (property "Reference" "D9" (id 0) (at 59.69 125.2093 0))
    (property "Value" "WS2812B" (id 1) (at 59.69 127.7493 0))
    (property "Footprint" "LED_SMD:LED_WS2812B_PLCC4_5.0x5.0mm_P3.2mm" (id 2) (at 49.53 137.16 0)
      (effects (font (size 1.27 1.27)) (justify left top) hide)
    )
    (property "Datasheet" "https://cdn-shop.adafruit.com/datasheets/WS2812B.pdf" (id 3) (at 50.8 139.065 0)
      (effects (font (size 1.27 1.27)) (justify left top) hide)
    )
    (pin "1" (uuid 776acb57-e76b-4ad6-ba59-943101e69970))
    (pin "2" (uuid 62904812-fb8d-4bcb-824b-ba0c19446254))
    (pin "3" (uuid e3d5dcb9-4369-4562-ac1f-f6398bb3bed8))
    (pin "4" (uuid 34082ce8-9679-4bf0-b73c-fa03e1436d47))
  )

  (symbol (lib_id "Device:C") (at 200.66 118.11 0) (unit 1)
    (in_bom yes) (on_board yes) (fields_autoplaced)
    (uuid 805acd9c-448d-496d-b5d8-eb48783cf372)
    (property "Reference" "C25" (id 0) (at 204.47 116.8399 0)
      (effects (font (size 1.27 1.27)) (justify left))
    )
    (property "Value" "0,1uF" (id 1) (at 204.47 119.3799 0)
      (effects (font (size 1.27 1.27)) (justify left))
    )
    (property "Footprint" "Capacitor_SMD:C_0805_2012Metric" (id 2) (at 201.6252 121.92 0)
      (effects (font (size 1.27 1.27)) hide)
    )
    (property "Datasheet" "~" (id 3) (at 200.66 118.11 0)
      (effects (font (size 1.27 1.27)) hide)
    )
    (pin "1" (uuid 34a25e02-d386-4a05-8832-827f6fa730a5))
    (pin "2" (uuid b4eeda84-0eb5-4c9f-ac72-d87743a2e12a))
  )

  (symbol (lib_id "power:GND") (at 63.5 165.1 0) (unit 1)
    (in_bom yes) (on_board yes) (fields_autoplaced)
    (uuid 81c837e5-7991-4d84-acff-2e696dd7e3d0)
    (property "Reference" "#PWR018" (id 0) (at 63.5 171.45 0)
      (effects (font (size 1.27 1.27)) hide)
    )
    (property "Value" "GND" (id 1) (at 63.5 170.18 0))
    (property "Footprint" "" (id 2) (at 63.5 165.1 0)
      (effects (font (size 1.27 1.27)) hide)
    )
    (property "Datasheet" "" (id 3) (at 63.5 165.1 0)
      (effects (font (size 1.27 1.27)) hide)
    )
    (pin "1" (uuid 2bf1daea-5e6a-4cde-b193-c2cd53df4b7d))
  )

  (symbol (lib_id "LED:WS2812B") (at 139.7 172.72 0) (unit 1)
    (in_bom yes) (on_board yes)
    (uuid 8319824d-9280-48c4-8b97-e3cf81505ee6)
    (property "Reference" "D16" (id 0) (at 129.54 174.625 0))
    (property "Value" "WS2812B" (id 1) (at 129.54 177.165 0))
    (property "Footprint" "LED_SMD:LED_WS2812B_PLCC4_5.0x5.0mm_P3.2mm" (id 2) (at 140.97 180.34 0)
      (effects (font (size 1.27 1.27)) (justify left top) hide)
    )
    (property "Datasheet" "https://cdn-shop.adafruit.com/datasheets/WS2812B.pdf" (id 3) (at 142.24 182.245 0)
      (effects (font (size 1.27 1.27)) (justify left top) hide)
    )
    (pin "1" (uuid 2e3fa486-b525-4dc6-9c57-2b3ccf70ed88))
    (pin "2" (uuid 7fae91a6-7ef7-4b1e-be05-cc58cc03fd05))
    (pin "3" (uuid e09812b6-2b49-4d34-9d8f-31c35ffd9ea5))
    (pin "4" (uuid e933763a-773f-4932-9f82-b4350d819c8c))
  )

  (symbol (lib_id "LED:WS2812B") (at 48.26 48.26 0) (unit 1)
    (in_bom yes) (on_board yes) (fields_autoplaced)
    (uuid 84a3f212-d523-4dc3-9adf-c7edc7299cea)
    (property "Reference" "D1" (id 0) (at 59.69 43.9293 0))
    (property "Value" "WS2812B" (id 1) (at 59.69 46.4693 0))
    (property "Footprint" "LED_SMD:LED_WS2812B_PLCC4_5.0x5.0mm_P3.2mm" (id 2) (at 49.53 55.88 0)
      (effects (font (size 1.27 1.27)) (justify left top) hide)
    )
    (property "Datasheet" "https://cdn-shop.adafruit.com/datasheets/WS2812B.pdf" (id 3) (at 50.8 57.785 0)
      (effects (font (size 1.27 1.27)) (justify left top) hide)
    )
    (pin "1" (uuid c4e703bd-b479-48eb-98ef-8e8fe96402d4))
    (pin "2" (uuid 2301e8e8-dfeb-4231-a2a0-6b269291f4a1))
    (pin "3" (uuid 93690126-0ea8-46f0-b6eb-00471a3d37e7))
    (pin "4" (uuid beb1406f-0624-4c40-9fad-e880d90482fd))
  )

  (symbol (lib_id "LED:WS2812B") (at 48.26 88.9 0) (unit 1)
    (in_bom yes) (on_board yes) (fields_autoplaced)
    (uuid 90ce14e9-2240-4d1b-8caa-7aa7f8bc9050)
    (property "Reference" "D5" (id 0) (at 59.69 84.5693 0))
    (property "Value" "WS2812B" (id 1) (at 59.69 87.1093 0))
    (property "Footprint" "LED_SMD:LED_WS2812B_PLCC4_5.0x5.0mm_P3.2mm" (id 2) (at 49.53 96.52 0)
      (effects (font (size 1.27 1.27)) (justify left top) hide)
    )
    (property "Datasheet" "https://cdn-shop.adafruit.com/datasheets/WS2812B.pdf" (id 3) (at 50.8 98.425 0)
      (effects (font (size 1.27 1.27)) (justify left top) hide)
    )
    (pin "1" (uuid f8ff3f29-85fa-4ccd-b8a4-9ad5ec04c3b7))
    (pin "2" (uuid 4f8eb150-8b33-4152-bdb4-215462777009))
    (pin "3" (uuid 823fabdd-e705-4a71-bb8a-92953057d1d5))
    (pin "4" (uuid 18906d41-202e-4ddf-9bfd-9c64feead654))
  )

  (symbol (lib_id "power:GND") (at 200.66 121.92 0) (unit 1)
    (in_bom yes) (on_board yes) (fields_autoplaced)
    (uuid 95edabae-0888-4bff-847d-eb7be2c6f1b0)
    (property "Reference" "#PWR030" (id 0) (at 200.66 128.27 0)
      (effects (font (size 1.27 1.27)) hide)
    )
    (property "Value" "GND" (id 1) (at 200.66 127 0))
    (property "Footprint" "" (id 2) (at 200.66 121.92 0)
      (effects (font (size 1.27 1.27)) hide)
    )
    (property "Datasheet" "" (id 3) (at 200.66 121.92 0)
      (effects (font (size 1.27 1.27)) hide)
    )
    (pin "1" (uuid 87917d2f-4b8c-43df-a339-eaa7be5a7f7d))
  )

  (symbol (lib_id "LED:WS2812B") (at 48.26 172.72 0) (unit 1)
    (in_bom yes) (on_board yes)
    (uuid a08c6d62-434a-4f30-beb8-9a7d608612d3)
    (property "Reference" "D13" (id 0) (at 38.1 174.625 0))
    (property "Value" "WS2812B" (id 1) (at 38.1 177.165 0))
    (property "Footprint" "LED_SMD:LED_WS2812B_PLCC4_5.0x5.0mm_P3.2mm" (id 2) (at 49.53 180.34 0)
      (effects (font (size 1.27 1.27)) (justify left top) hide)
    )
    (property "Datasheet" "https://cdn-shop.adafruit.com/datasheets/WS2812B.pdf" (id 3) (at 50.8 182.245 0)
      (effects (font (size 1.27 1.27)) (justify left top) hide)
    )
    (pin "1" (uuid 4c74b97d-a243-463d-9e7f-7561d48a05f2))
    (pin "2" (uuid 24742515-c21d-4b08-b24a-f3acd60d5875))
    (pin "3" (uuid c474f2fc-4141-4cc8-b3f6-c5779d2f584a))
    (pin "4" (uuid 05ca308e-df62-4d44-b49f-ec4dc441d2f1))
  )

  (symbol (lib_id "power:GND") (at 78.74 121.92 0) (unit 1)
    (in_bom yes) (on_board yes) (fields_autoplaced)
    (uuid a3eddccb-5700-40eb-87c7-9012acad9f2c)
    (property "Reference" "#PWR021" (id 0) (at 78.74 128.27 0)
      (effects (font (size 1.27 1.27)) hide)
    )
    (property "Value" "GND" (id 1) (at 78.74 127 0))
    (property "Footprint" "" (id 2) (at 78.74 121.92 0)
      (effects (font (size 1.27 1.27)) hide)
    )
    (property "Datasheet" "" (id 3) (at 78.74 121.92 0)
      (effects (font (size 1.27 1.27)) hide)
    )
    (pin "1" (uuid e8538363-6c88-491d-9d27-bf16d7bab972))
  )

  (symbol (lib_id "Device:C") (at 259.08 118.11 0) (unit 1)
    (in_bom yes) (on_board yes) (fields_autoplaced)
    (uuid aadedf80-eb94-456f-855b-aa97312d350c)
    (property "Reference" "C26" (id 0) (at 262.89 116.8399 0)
      (effects (font (size 1.27 1.27)) (justify left))
    )
    (property "Value" "0,1uF" (id 1) (at 262.89 119.3799 0)
      (effects (font (size 1.27 1.27)) (justify left))
    )
    (property "Footprint" "Capacitor_SMD:C_0805_2012Metric" (id 2) (at 260.0452 121.92 0)
      (effects (font (size 1.27 1.27)) hide)
    )
    (property "Datasheet" "~" (id 3) (at 259.08 118.11 0)
      (effects (font (size 1.27 1.27)) hide)
    )
    (pin "1" (uuid 2c248cf2-1595-444f-960c-7c032add649b))
    (pin "2" (uuid 1b09f87f-a608-42e5-a158-f29895ba19ed))
  )

  (symbol (lib_id "LED:WS2812B") (at 109.22 88.9 0) (unit 1)
    (in_bom yes) (on_board yes) (fields_autoplaced)
    (uuid aea75ec5-5279-4d47-ab09-573ae0a4819b)
    (property "Reference" "D6" (id 0) (at 120.65 84.5693 0))
    (property "Value" "WS2812B" (id 1) (at 120.65 87.1093 0))
    (property "Footprint" "LED_SMD:LED_WS2812B_PLCC4_5.0x5.0mm_P3.2mm" (id 2) (at 110.49 96.52 0)
      (effects (font (size 1.27 1.27)) (justify left top) hide)
    )
    (property "Datasheet" "https://cdn-shop.adafruit.com/datasheets/WS2812B.pdf" (id 3) (at 111.76 98.425 0)
      (effects (font (size 1.27 1.27)) (justify left top) hide)
    )
    (pin "1" (uuid 45823260-2bdb-4830-9828-2506b74a9958))
    (pin "2" (uuid a6b24a40-f488-461a-a41b-f140533581ed))
    (pin "3" (uuid e72579b7-5c83-4b0f-93cd-e085ce3481e6))
    (pin "4" (uuid 8bca586c-ecb9-400d-98df-9f7b166628e3))
  )

  (symbol (lib_id "power:GND") (at 139.7 35.56 0) (unit 1)
    (in_bom yes) (on_board yes) (fields_autoplaced)
    (uuid b2b405b1-bdec-42ce-adc3-cdd64f9d4045)
    (property "Reference" "#PWR024" (id 0) (at 139.7 41.91 0)
      (effects (font (size 1.27 1.27)) hide)
    )
    (property "Value" "GND" (id 1) (at 139.7 40.64 0))
    (property "Footprint" "" (id 2) (at 139.7 35.56 0)
      (effects (font (size 1.27 1.27)) hide)
    )
    (property "Datasheet" "" (id 3) (at 139.7 35.56 0)
      (effects (font (size 1.27 1.27)) hide)
    )
    (pin "1" (uuid 9fadf8ec-1a14-43bf-b194-82d8f3704466))
  )

  (symbol (lib_id "power:GND") (at 78.74 81.28 0) (unit 1)
    (in_bom yes) (on_board yes) (fields_autoplaced)
    (uuid b35f5c8f-a17e-4950-a323-7205bd5b43ef)
    (property "Reference" "#PWR020" (id 0) (at 78.74 87.63 0)
      (effects (font (size 1.27 1.27)) hide)
    )
    (property "Value" "GND" (id 1) (at 78.74 86.36 0))
    (property "Footprint" "" (id 2) (at 78.74 81.28 0)
      (effects (font (size 1.27 1.27)) hide)
    )
    (property "Datasheet" "" (id 3) (at 78.74 81.28 0)
      (effects (font (size 1.27 1.27)) hide)
    )
    (pin "1" (uuid ab8ab55c-b560-433c-a658-2b59c6396cac))
  )

  (symbol (lib_id "power:VCC") (at 27.94 27.94 0) (unit 1)
    (in_bom yes) (on_board yes) (fields_autoplaced)
    (uuid b8822758-430c-4efd-821e-07c84fc4812e)
    (property "Reference" "#PWR017" (id 0) (at 27.94 31.75 0)
      (effects (font (size 1.27 1.27)) hide)
    )
    (property "Value" "VCC" (id 1) (at 27.94 22.86 0))
    (property "Footprint" "" (id 2) (at 27.94 27.94 0)
      (effects (font (size 1.27 1.27)) hide)
    )
    (property "Datasheet" "" (id 3) (at 27.94 27.94 0)
      (effects (font (size 1.27 1.27)) hide)
    )
    (pin "1" (uuid 24316aa0-b776-4567-a6ed-6f1b4444fba5))
  )

  (symbol (lib_id "LED:WS2812B") (at 170.18 88.9 0) (unit 1)
    (in_bom yes) (on_board yes) (fields_autoplaced)
    (uuid c2bdf6ea-8542-4ba3-b0d2-2c59a192ab31)
    (property "Reference" "D7" (id 0) (at 181.61 84.5693 0))
    (property "Value" "WS2812B" (id 1) (at 181.61 87.1093 0))
    (property "Footprint" "LED_SMD:LED_WS2812B_PLCC4_5.0x5.0mm_P3.2mm" (id 2) (at 171.45 96.52 0)
      (effects (font (size 1.27 1.27)) (justify left top) hide)
    )
    (property "Datasheet" "https://cdn-shop.adafruit.com/datasheets/WS2812B.pdf" (id 3) (at 172.72 98.425 0)
      (effects (font (size 1.27 1.27)) (justify left top) hide)
    )
    (pin "1" (uuid 63d3be89-1654-4658-b821-238d50f3a3ce))
    (pin "2" (uuid 804645e6-708e-4b99-abe7-834320e97075))
    (pin "3" (uuid f163091e-a222-48b6-8dbe-4514d392e547))
    (pin "4" (uuid 0e0c705e-9c75-4467-ae75-6e306b8c2692))
  )

  (symbol (lib_id "Device:C") (at 200.66 77.47 0) (unit 1)
    (in_bom yes) (on_board yes) (fields_autoplaced)
    (uuid c43319b5-8316-4297-9228-4791f9edc43f)
    (property "Reference" "C21" (id 0) (at 204.47 76.1999 0)
      (effects (font (size 1.27 1.27)) (justify left))
    )
    (property "Value" "0,1uF" (id 1) (at 204.47 78.7399 0)
      (effects (font (size 1.27 1.27)) (justify left))
    )
    (property "Footprint" "Capacitor_SMD:C_0805_2012Metric" (id 2) (at 201.6252 81.28 0)
      (effects (font (size 1.27 1.27)) hide)
    )
    (property "Datasheet" "~" (id 3) (at 200.66 77.47 0)
      (effects (font (size 1.27 1.27)) hide)
    )
    (pin "1" (uuid 9215d1f8-f6d2-4f22-9a53-77072f7d5d87))
    (pin "2" (uuid 6d76b69f-13fd-4d71-a5b4-e26d6a201478))
  )

  (symbol (lib_id "power:GND") (at 124.46 165.1 0) (unit 1)
    (in_bom yes) (on_board yes) (fields_autoplaced)
    (uuid c613bc20-cc67-42dc-b11e-15f6da7f6f37)
    (property "Reference" "#PWR023" (id 0) (at 124.46 171.45 0)
      (effects (font (size 1.27 1.27)) hide)
    )
    (property "Value" "GND" (id 1) (at 124.46 170.18 0))
    (property "Footprint" "" (id 2) (at 124.46 165.1 0)
      (effects (font (size 1.27 1.27)) hide)
    )
    (property "Datasheet" "" (id 3) (at 124.46 165.1 0)
      (effects (font (size 1.27 1.27)) hide)
    )
    (pin "1" (uuid afa4893e-328f-4516-b7f4-c63f1edf8a50))
  )

  (symbol (lib_id "power:GND") (at 259.08 81.28 0) (unit 1)
    (in_bom yes) (on_board yes) (fields_autoplaced)
    (uuid c7b1f5ab-f7a7-4fb3-a8e3-68e7b86f845f)
    (property "Reference" "#PWR032" (id 0) (at 259.08 87.63 0)
      (effects (font (size 1.27 1.27)) hide)
    )
    (property "Value" "GND" (id 1) (at 259.08 86.36 0))
    (property "Footprint" "" (id 2) (at 259.08 81.28 0)
      (effects (font (size 1.27 1.27)) hide)
    )
    (property "Datasheet" "" (id 3) (at 259.08 81.28 0)
      (effects (font (size 1.27 1.27)) hide)
    )
    (pin "1" (uuid f4c2c1ec-53cd-4481-b728-5cb55f981868))
  )

  (symbol (lib_id "power:GND") (at 259.08 35.56 0) (unit 1)
    (in_bom yes) (on_board yes) (fields_autoplaced)
    (uuid cad340f2-56ee-4d4b-918f-0bac28a81e26)
    (property "Reference" "#PWR031" (id 0) (at 259.08 41.91 0)
      (effects (font (size 1.27 1.27)) hide)
    )
    (property "Value" "GND" (id 1) (at 259.08 40.64 0))
    (property "Footprint" "" (id 2) (at 259.08 35.56 0)
      (effects (font (size 1.27 1.27)) hide)
    )
    (property "Datasheet" "" (id 3) (at 259.08 35.56 0)
      (effects (font (size 1.27 1.27)) hide)
    )
    (pin "1" (uuid a68591a9-e385-413b-b9fa-84ea44d9bc2e))
  )

  (symbol (lib_id "power:GND") (at 200.66 35.56 0) (unit 1)
    (in_bom yes) (on_board yes) (fields_autoplaced)
    (uuid cb133c23-0230-4e7d-a604-44726f8847f5)
    (property "Reference" "#PWR028" (id 0) (at 200.66 41.91 0)
      (effects (font (size 1.27 1.27)) hide)
    )
    (property "Value" "GND" (id 1) (at 200.66 40.64 0))
    (property "Footprint" "" (id 2) (at 200.66 35.56 0)
      (effects (font (size 1.27 1.27)) hide)
    )
    (property "Datasheet" "" (id 3) (at 200.66 35.56 0)
      (effects (font (size 1.27 1.27)) hide)
    )
    (pin "1" (uuid 76024009-eb4e-415c-9978-94c6d1bdc7dc))
  )

  (symbol (lib_id "LED:WS2812B") (at 231.14 88.9 0) (unit 1)
    (in_bom yes) (on_board yes) (fields_autoplaced)
    (uuid d3d5b494-f655-4f44-9070-fd5c95655d11)
    (property "Reference" "D8" (id 0) (at 242.57 84.5693 0))
    (property "Value" "WS2812B" (id 1) (at 242.57 87.1093 0))
    (property "Footprint" "LED_SMD:LED_WS2812B_PLCC4_5.0x5.0mm_P3.2mm" (id 2) (at 232.41 96.52 0)
      (effects (font (size 1.27 1.27)) (justify left top) hide)
    )
    (property "Datasheet" "https://cdn-shop.adafruit.com/datasheets/WS2812B.pdf" (id 3) (at 233.68 98.425 0)
      (effects (font (size 1.27 1.27)) (justify left top) hide)
    )
    (pin "1" (uuid 5e162f85-cd4a-4e5c-84ed-f01d03b7a18e))
    (pin "2" (uuid 543f5109-0305-4425-acb2-136e7a1880c8))
    (pin "3" (uuid 8e2f09aa-fb79-47ca-b6aa-f2db4c8c5c04))
    (pin "4" (uuid 66c72123-b9ca-4b9c-a526-d27e171912c2))
  )

  (symbol (lib_id "Device:C") (at 139.7 77.47 0) (unit 1)
    (in_bom yes) (on_board yes) (fields_autoplaced)
    (uuid d9e0a165-09a4-4824-a9ce-587ad8b489da)
    (property "Reference" "C20" (id 0) (at 143.51 76.1999 0)
      (effects (font (size 1.27 1.27)) (justify left))
    )
    (property "Value" "0,1uF" (id 1) (at 143.51 78.7399 0)
      (effects (font (size 1.27 1.27)) (justify left))
    )
    (property "Footprint" "Capacitor_SMD:C_0805_2012Metric" (id 2) (at 140.6652 81.28 0)
      (effects (font (size 1.27 1.27)) hide)
    )
    (property "Datasheet" "~" (id 3) (at 139.7 77.47 0)
      (effects (font (size 1.27 1.27)) hide)
    )
    (pin "1" (uuid dbbdab50-cb74-4755-91bc-f7cdcd5657f0))
    (pin "2" (uuid bfc432e8-3fa0-4f5f-b80d-3f907d0688c7))
  )

  (symbol (lib_id "power:GND") (at 200.66 81.28 0) (unit 1)
    (in_bom yes) (on_board yes) (fields_autoplaced)
    (uuid e1cbdc2d-9a94-4e50-be74-3f5101bb6097)
    (property "Reference" "#PWR029" (id 0) (at 200.66 87.63 0)
      (effects (font (size 1.27 1.27)) hide)
    )
    (property "Value" "GND" (id 1) (at 200.66 86.36 0))
    (property "Footprint" "" (id 2) (at 200.66 81.28 0)
      (effects (font (size 1.27 1.27)) hide)
    )
    (property "Datasheet" "" (id 3) (at 200.66 81.28 0)
      (effects (font (size 1.27 1.27)) hide)
    )
    (pin "1" (uuid e2ce4310-5a56-4e98-874e-7616ff362955))
  )

  (symbol (lib_id "Device:C") (at 154.94 161.29 0) (unit 1)
    (in_bom yes) (on_board yes) (fields_autoplaced)
    (uuid e9db0acb-9596-44cf-96b1-1f88366264e3)
    (property "Reference" "C30" (id 0) (at 158.75 160.0199 0)
      (effects (font (size 1.27 1.27)) (justify left))
    )
    (property "Value" "0,1uF" (id 1) (at 158.75 162.5599 0)
      (effects (font (size 1.27 1.27)) (justify left))
    )
    (property "Footprint" "Capacitor_SMD:C_0805_2012Metric" (id 2) (at 155.9052 165.1 0)
      (effects (font (size 1.27 1.27)) hide)
    )
    (property "Datasheet" "~" (id 3) (at 154.94 161.29 0)
      (effects (font (size 1.27 1.27)) hide)
    )
    (pin "1" (uuid 200f2fc7-3973-492c-9ef6-17234321a60c))
    (pin "2" (uuid c45d5b13-e5fb-4d56-bc39-01e28d3983f0))
  )

  (symbol (lib_id "LED:WS2812B") (at 170.18 48.26 0) (unit 1)
    (in_bom yes) (on_board yes) (fields_autoplaced)
    (uuid ea483516-4820-43a6-9a84-96ab16c456d0)
    (property "Reference" "D3" (id 0) (at 181.61 43.9293 0))
    (property "Value" "WS2812B" (id 1) (at 181.61 46.4693 0))
    (property "Footprint" "LED_SMD:LED_WS2812B_PLCC4_5.0x5.0mm_P3.2mm" (id 2) (at 171.45 55.88 0)
      (effects (font (size 1.27 1.27)) (justify left top) hide)
    )
    (property "Datasheet" "https://cdn-shop.adafruit.com/datasheets/WS2812B.pdf" (id 3) (at 172.72 57.785 0)
      (effects (font (size 1.27 1.27)) (justify left top) hide)
    )
    (pin "1" (uuid 9e1d68ed-e174-4ed0-98fc-403c3efe5dcb))
    (pin "2" (uuid a8da00d0-d572-4e51-b97a-9a4b53488660))
    (pin "3" (uuid 528525d6-a8f3-4916-a4b4-6cf9e35e4916))
    (pin "4" (uuid 1994699a-a129-4c84-a772-9f6d32dee7a3))
  )

  (symbol (lib_id "Device:C") (at 63.5 161.29 0) (unit 1)
    (in_bom yes) (on_board yes) (fields_autoplaced)
    (uuid eeb8f576-bf43-4425-a111-d4bf1e14b7b7)
    (property "Reference" "C27" (id 0) (at 67.31 160.0199 0)
      (effects (font (size 1.27 1.27)) (justify left))
    )
    (property "Value" "0,1uF" (id 1) (at 67.31 162.5599 0)
      (effects (font (size 1.27 1.27)) (justify left))
    )
    (property "Footprint" "Capacitor_SMD:C_0805_2012Metric" (id 2) (at 64.4652 165.1 0)
      (effects (font (size 1.27 1.27)) hide)
    )
    (property "Datasheet" "~" (id 3) (at 63.5 161.29 0)
      (effects (font (size 1.27 1.27)) hide)
    )
    (pin "1" (uuid f63d6857-ed49-43e2-9208-70a29e985579))
    (pin "2" (uuid 717342be-5939-4625-a979-bfb551a2ed87))
  )

  (symbol (lib_id "Device:C") (at 78.74 31.75 0) (unit 1)
    (in_bom yes) (on_board yes) (fields_autoplaced)
    (uuid f7b0b693-2513-47b9-aeef-714d278341db)
    (property "Reference" "C15" (id 0) (at 82.55 30.4799 0)
      (effects (font (size 1.27 1.27)) (justify left))
    )
    (property "Value" "0,1uF" (id 1) (at 82.55 33.0199 0)
      (effects (font (size 1.27 1.27)) (justify left))
    )
    (property "Footprint" "Capacitor_SMD:C_0805_2012Metric" (id 2) (at 79.7052 35.56 0)
      (effects (font (size 1.27 1.27)) hide)
    )
    (property "Datasheet" "~" (id 3) (at 78.74 31.75 0)
      (effects (font (size 1.27 1.27)) hide)
    )
    (pin "1" (uuid c18cc1a5-1f3f-485d-a7f6-8fa9503c5bb6))
    (pin "2" (uuid e797eba5-831d-403a-8b6f-a498c6542d73))
  )

  (symbol (lib_id "LED:WS2812B") (at 78.74 172.72 0) (unit 1)
    (in_bom yes) (on_board yes)
    (uuid fb90a785-ea1c-434a-90a0-72353ceb100e)
    (property "Reference" "D14" (id 0) (at 68.58 174.625 0))
    (property "Value" "WS2812B" (id 1) (at 68.58 177.165 0))
    (property "Footprint" "LED_SMD:LED_WS2812B_PLCC4_5.0x5.0mm_P3.2mm" (id 2) (at 80.01 180.34 0)
      (effects (font (size 1.27 1.27)) (justify left top) hide)
    )
    (property "Datasheet" "https://cdn-shop.adafruit.com/datasheets/WS2812B.pdf" (id 3) (at 81.28 182.245 0)
      (effects (font (size 1.27 1.27)) (justify left top) hide)
    )
    (pin "1" (uuid e7576585-7b87-4901-8ab9-304464a8d65d))
    (pin "2" (uuid c5732806-0952-46c2-8f79-b623335e3a74))
    (pin "3" (uuid a5dba0b8-69da-45c9-b3b3-e34a9cf5d736))
    (pin "4" (uuid 48ff0ceb-ea44-48a3-b980-0dcbba8daca9))
  )

  (symbol (lib_id "Device:C") (at 259.08 77.47 0) (unit 1)
    (in_bom yes) (on_board yes) (fields_autoplaced)
    (uuid ffc085f0-5f24-4480-9762-f6a7564d320f)
    (property "Reference" "C22" (id 0) (at 262.89 76.1999 0)
      (effects (font (size 1.27 1.27)) (justify left))
    )
    (property "Value" "0,1uF" (id 1) (at 262.89 78.7399 0)
      (effects (font (size 1.27 1.27)) (justify left))
    )
    (property "Footprint" "Capacitor_SMD:C_0805_2012Metric" (id 2) (at 260.0452 81.28 0)
      (effects (font (size 1.27 1.27)) hide)
    )
    (property "Datasheet" "~" (id 3) (at 259.08 77.47 0)
      (effects (font (size 1.27 1.27)) hide)
    )
    (pin "1" (uuid 9e7a6bad-0c73-4327-b00b-a423aa4a5b00))
    (pin "2" (uuid ab2d11b6-fb2a-4f46-ae3f-451fe5e806a1))
  )

  (symbol (lib_id "Device:C") (at 139.7 118.11 0) (unit 1)
    (in_bom yes) (on_board yes) (fields_autoplaced)
    (uuid fff7120b-e132-464c-862e-e94fa7e4d643)
    (property "Reference" "C24" (id 0) (at 143.51 116.8399 0)
      (effects (font (size 1.27 1.27)) (justify left))
    )
    (property "Value" "0,1uF" (id 1) (at 143.51 119.3799 0)
      (effects (font (size 1.27 1.27)) (justify left))
    )
    (property "Footprint" "Capacitor_SMD:C_0805_2012Metric" (id 2) (at 140.6652 121.92 0)
      (effects (font (size 1.27 1.27)) hide)
    )
    (property "Datasheet" "~" (id 3) (at 139.7 118.11 0)
      (effects (font (size 1.27 1.27)) hide)
    )
    (pin "1" (uuid 1f8f2036-27bf-46ad-a61c-5f36f9565167))
    (pin "2" (uuid a66263d7-8af1-41a9-b18a-48b29c99e4f6))
  )
)
